<?xml version="1.0" encoding="UTF-8"?>
<svg xmlns="http://www.w3.org/2000/svg" xmlns:xlink="http://www.w3.org/1999/xlink" width="1230pt" height="693.000001pt" viewBox="0 0 1230 693.000001" version="1.2">
<defs>
<g>
<symbol overflow="visible" id="glyph0-0">
<path style="stroke:none;" d="M 7.265625 -33.203125 C 7.753906 -33.628906 8.273438 -34.023438 8.828125 -34.390625 C 9.378906 -34.753906 9.984375 -35.078125 10.640625 -35.359375 C 11.304688 -35.640625 12.019531 -35.863281 12.78125 -36.03125 C 13.550781 -36.195312 14.382812 -36.28125 15.28125 -36.28125 C 16.5 -36.28125 17.609375 -36.109375 18.609375 -35.765625 C 19.609375 -35.429688 20.460938 -34.953125 21.171875 -34.328125 C 21.878906 -33.710938 22.429688 -32.960938 22.828125 -32.078125 C 23.222656 -31.191406 23.421875 -30.207031 23.421875 -29.125 C 23.421875 -28.050781 23.273438 -27.125 22.984375 -26.34375 C 22.691406 -25.570312 22.328125 -24.898438 21.890625 -24.328125 C 21.453125 -23.765625 20.972656 -23.273438 20.453125 -22.859375 C 19.929688 -22.441406 19.4375 -22.046875 18.96875 -21.671875 C 18.5 -21.304688 18.09375 -20.941406 17.75 -20.578125 C 17.414062 -20.222656 17.210938 -19.820312 17.140625 -19.375 L 16.640625 -16.328125 L 13.09375 -16.328125 L 12.75 -19.71875 C 12.664062 -20.382812 12.75 -20.960938 13 -21.453125 C 13.257812 -21.953125 13.601562 -22.410156 14.03125 -22.828125 C 14.46875 -23.242188 14.953125 -23.644531 15.484375 -24.03125 C 16.023438 -24.414062 16.523438 -24.832031 16.984375 -25.28125 C 17.453125 -25.726562 17.84375 -26.234375 18.15625 -26.796875 C 18.46875 -27.359375 18.625 -28.023438 18.625 -28.796875 C 18.625 -29.785156 18.269531 -30.570312 17.5625 -31.15625 C 16.851562 -31.738281 15.945312 -32.03125 14.84375 -32.03125 C 14.039062 -32.03125 13.367188 -31.941406 12.828125 -31.765625 C 12.285156 -31.597656 11.820312 -31.40625 11.4375 -31.1875 C 11.050781 -30.976562 10.71875 -30.785156 10.4375 -30.609375 C 10.164062 -30.429688 9.925781 -30.34375 9.71875 -30.34375 C 9.226562 -30.34375 8.867188 -30.554688 8.640625 -30.984375 Z M 11.515625 -8.5 C 11.515625 -9.40625 11.816406 -10.164062 12.421875 -10.78125 C 13.023438 -11.40625 13.789062 -11.71875 14.71875 -11.71875 C 15.144531 -11.71875 15.550781 -11.632812 15.9375 -11.46875 C 16.332031 -11.3125 16.671875 -11.085938 16.953125 -10.796875 C 17.234375 -10.503906 17.453125 -10.160156 17.609375 -9.765625 C 17.773438 -9.367188 17.859375 -8.945312 17.859375 -8.5 C 17.859375 -8.050781 17.773438 -7.628906 17.609375 -7.234375 C 17.453125 -6.847656 17.234375 -6.507812 16.953125 -6.21875 C 16.671875 -5.9375 16.332031 -5.710938 15.9375 -5.546875 C 15.550781 -5.378906 15.144531 -5.296875 14.71875 -5.296875 C 13.789062 -5.296875 13.023438 -5.597656 12.421875 -6.203125 C 11.816406 -6.816406 11.515625 -7.582031 11.515625 -8.5 Z M 1.3125 -41.6875 L 29.640625 -41.6875 L 29.640625 0 L 1.3125 0 Z M 2.765625 -1.578125 L 27.984375 -1.578125 L 27.984375 -40.09375 L 2.765625 -40.09375 Z M 2.765625 -1.578125 "/>
</symbol>
<symbol overflow="visible" id="glyph0-1">
<path style="stroke:none;" d="M 39.1875 -20.046875 L 39.1875 -4.046875 C 37.09375 -2.535156 34.859375 -1.40625 32.484375 -0.65625 C 30.109375 0.09375 27.503906 0.46875 24.671875 0.46875 C 21.316406 0.46875 18.289062 -0.046875 15.59375 -1.078125 C 12.894531 -2.117188 10.585938 -3.578125 8.671875 -5.453125 C 6.765625 -7.328125 5.296875 -9.570312 4.265625 -12.1875 C 3.242188 -14.8125 2.734375 -17.691406 2.734375 -20.828125 C 2.734375 -24.015625 3.234375 -26.914062 4.234375 -29.53125 C 5.234375 -32.144531 6.65625 -34.390625 8.5 -36.265625 C 10.34375 -38.140625 12.582031 -39.585938 15.21875 -40.609375 C 17.851562 -41.640625 20.800781 -42.15625 24.0625 -42.15625 C 25.707031 -42.15625 27.238281 -42.03125 28.65625 -41.78125 C 30.070312 -41.539062 31.378906 -41.191406 32.578125 -40.734375 C 33.785156 -40.285156 34.898438 -39.734375 35.921875 -39.078125 C 36.953125 -38.429688 37.914062 -37.703125 38.8125 -36.890625 L 37.203125 -34.328125 C 36.953125 -33.941406 36.628906 -33.691406 36.234375 -33.578125 C 35.835938 -33.472656 35.394531 -33.566406 34.90625 -33.859375 C 34.445312 -34.128906 33.914062 -34.457031 33.3125 -34.84375 C 32.707031 -35.238281 31.972656 -35.613281 31.109375 -35.96875 C 30.253906 -36.332031 29.238281 -36.640625 28.0625 -36.890625 C 26.882812 -37.140625 25.492188 -37.265625 23.890625 -37.265625 C 21.535156 -37.265625 19.40625 -36.878906 17.5 -36.109375 C 15.601562 -35.347656 13.984375 -34.253906 12.640625 -32.828125 C 11.304688 -31.398438 10.28125 -29.671875 9.5625 -27.640625 C 8.851562 -25.617188 8.5 -23.347656 8.5 -20.828125 C 8.5 -18.210938 8.867188 -15.867188 9.609375 -13.796875 C 10.359375 -11.734375 11.425781 -9.976562 12.8125 -8.53125 C 14.195312 -7.09375 15.878906 -5.992188 17.859375 -5.234375 C 19.835938 -4.484375 22.0625 -4.109375 24.53125 -4.109375 C 26.46875 -4.109375 28.1875 -4.320312 29.6875 -4.75 C 31.1875 -5.1875 32.65625 -5.796875 34.09375 -6.578125 L 34.09375 -15.734375 L 27.609375 -15.734375 C 27.242188 -15.734375 26.945312 -15.835938 26.71875 -16.046875 C 26.5 -16.265625 26.390625 -16.53125 26.390625 -16.84375 L 26.390625 -20.046875 Z M 39.1875 -20.046875 "/>
</symbol>
<symbol overflow="visible" id="glyph0-2">
<path style="stroke:none;" d="M 26.65625 -35.171875 C 26.476562 -34.878906 26.285156 -34.660156 26.078125 -34.515625 C 25.878906 -34.367188 25.632812 -34.296875 25.34375 -34.296875 C 25.007812 -34.296875 24.617188 -34.460938 24.171875 -34.796875 C 23.722656 -35.128906 23.164062 -35.492188 22.5 -35.890625 C 21.832031 -36.285156 21.023438 -36.644531 20.078125 -36.96875 C 19.140625 -37.300781 18.003906 -37.46875 16.671875 -37.46875 C 15.410156 -37.46875 14.300781 -37.296875 13.34375 -36.953125 C 12.382812 -36.617188 11.578125 -36.160156 10.921875 -35.578125 C 10.273438 -34.992188 9.785156 -34.3125 9.453125 -33.53125 C 9.117188 -32.75 8.953125 -31.898438 8.953125 -30.984375 C 8.953125 -29.816406 9.238281 -28.847656 9.8125 -28.078125 C 10.382812 -27.316406 11.140625 -26.664062 12.078125 -26.125 C 13.023438 -25.582031 14.09375 -25.113281 15.28125 -24.71875 C 16.476562 -24.320312 17.703125 -23.910156 18.953125 -23.484375 C 20.203125 -23.054688 21.421875 -22.570312 22.609375 -22.03125 C 23.804688 -21.5 24.875 -20.828125 25.8125 -20.015625 C 26.757812 -19.203125 27.519531 -18.203125 28.09375 -17.015625 C 28.664062 -15.835938 28.953125 -14.382812 28.953125 -12.65625 C 28.953125 -10.832031 28.640625 -9.117188 28.015625 -7.515625 C 27.398438 -5.921875 26.492188 -4.53125 25.296875 -3.34375 C 24.097656 -2.164062 22.628906 -1.234375 20.890625 -0.546875 C 19.160156 0.128906 17.191406 0.46875 14.984375 0.46875 C 12.265625 0.46875 9.800781 -0.0195312 7.59375 -1 C 5.382812 -1.976562 3.492188 -3.300781 1.921875 -4.96875 L 3.546875 -7.65625 C 3.703125 -7.863281 3.890625 -8.039062 4.109375 -8.1875 C 4.335938 -8.332031 4.585938 -8.40625 4.859375 -8.40625 C 5.109375 -8.40625 5.394531 -8.300781 5.71875 -8.09375 C 6.039062 -7.894531 6.40625 -7.640625 6.8125 -7.328125 C 7.21875 -7.015625 7.679688 -6.675781 8.203125 -6.3125 C 8.722656 -5.945312 9.316406 -5.609375 9.984375 -5.296875 C 10.660156 -4.984375 11.425781 -4.722656 12.28125 -4.515625 C 13.132812 -4.316406 14.09375 -4.21875 15.15625 -4.21875 C 16.5 -4.21875 17.691406 -4.398438 18.734375 -4.765625 C 19.785156 -5.140625 20.671875 -5.660156 21.390625 -6.328125 C 22.117188 -6.992188 22.675781 -7.789062 23.0625 -8.71875 C 23.457031 -9.65625 23.65625 -10.695312 23.65625 -11.84375 C 23.65625 -13.101562 23.367188 -14.132812 22.796875 -14.9375 C 22.222656 -15.738281 21.46875 -16.410156 20.53125 -16.953125 C 19.601562 -17.503906 18.535156 -17.96875 17.328125 -18.34375 C 16.128906 -18.71875 14.910156 -19.101562 13.671875 -19.5 C 12.429688 -19.90625 11.207031 -20.367188 10 -20.890625 C 8.800781 -21.410156 7.734375 -22.085938 6.796875 -22.921875 C 5.867188 -23.753906 5.117188 -24.796875 4.546875 -26.046875 C 3.972656 -27.304688 3.6875 -28.851562 3.6875 -30.6875 C 3.6875 -32.164062 3.972656 -33.59375 4.546875 -34.96875 C 5.117188 -36.34375 5.953125 -37.5625 7.046875 -38.625 C 8.148438 -39.695312 9.5 -40.550781 11.09375 -41.1875 C 12.695312 -41.832031 14.535156 -42.15625 16.609375 -42.15625 C 18.941406 -42.15625 21.0625 -41.785156 22.96875 -41.046875 C 24.875 -40.316406 26.554688 -39.25 28.015625 -37.84375 Z M 26.65625 -35.171875 "/>
</symbol>
<symbol overflow="visible" id="glyph0-3">
<path style="stroke:none;" d=""/>
</symbol>
<symbol overflow="visible" id="glyph0-4">
<path style="stroke:none;" d="M 17.625 -20.078125 C 19.238281 -20.078125 20.660156 -20.289062 21.890625 -20.71875 C 23.117188 -21.144531 24.15625 -21.738281 25 -22.5 C 25.84375 -23.269531 26.476562 -24.1875 26.90625 -25.25 C 27.332031 -26.320312 27.546875 -27.5 27.546875 -28.78125 C 27.546875 -31.4375 26.726562 -33.507812 25.09375 -35 C 23.457031 -36.488281 20.96875 -37.234375 17.625 -37.234375 L 10.9375 -37.234375 L 10.9375 -20.078125 Z M 17.625 -41.6875 C 20.269531 -41.6875 22.566406 -41.378906 24.515625 -40.765625 C 26.460938 -40.160156 28.078125 -39.296875 29.359375 -38.171875 C 30.640625 -37.046875 31.59375 -35.6875 32.21875 -34.09375 C 32.851562 -32.507812 33.171875 -30.738281 33.171875 -28.78125 C 33.171875 -26.832031 32.828125 -25.050781 32.140625 -23.4375 C 31.460938 -21.832031 30.46875 -20.445312 29.15625 -19.28125 C 27.851562 -18.125 26.234375 -17.21875 24.296875 -16.5625 C 22.367188 -15.914062 20.144531 -15.59375 17.625 -15.59375 L 10.9375 -15.59375 L 10.9375 0 L 5.328125 0 L 5.328125 -41.6875 Z M 17.625 -41.6875 "/>
</symbol>
<symbol overflow="visible" id="glyph0-5">
<path style="stroke:none;" d="M 20.078125 -13.265625 C 17.691406 -13.191406 15.660156 -13.003906 13.984375 -12.703125 C 12.304688 -12.398438 10.9375 -12.003906 9.875 -11.515625 C 8.820312 -11.035156 8.054688 -10.460938 7.578125 -9.796875 C 7.097656 -9.140625 6.859375 -8.40625 6.859375 -7.59375 C 6.859375 -6.820312 6.984375 -6.15625 7.234375 -5.59375 C 7.492188 -5.03125 7.84375 -4.566406 8.28125 -4.203125 C 8.71875 -3.847656 9.226562 -3.585938 9.8125 -3.421875 C 10.40625 -3.253906 11.039062 -3.171875 11.71875 -3.171875 C 12.632812 -3.171875 13.46875 -3.257812 14.21875 -3.4375 C 14.976562 -3.625 15.691406 -3.890625 16.359375 -4.234375 C 17.035156 -4.585938 17.675781 -5.003906 18.28125 -5.484375 C 18.894531 -5.972656 19.492188 -6.53125 20.078125 -7.15625 Z M 3.34375 -25.3125 C 4.976562 -26.882812 6.734375 -28.054688 8.609375 -28.828125 C 10.492188 -29.609375 12.578125 -30 14.859375 -30 C 16.515625 -30 17.984375 -29.722656 19.265625 -29.171875 C 20.546875 -28.628906 21.617188 -27.875 22.484375 -26.90625 C 23.359375 -25.9375 24.019531 -24.765625 24.46875 -23.390625 C 24.914062 -22.015625 25.140625 -20.503906 25.140625 -18.859375 L 25.140625 0 L 22.84375 0 C 22.332031 0 21.941406 -0.0820312 21.671875 -0.25 C 21.398438 -0.414062 21.1875 -0.738281 21.03125 -1.21875 L 20.453125 -4.015625 C 19.679688 -3.296875 18.925781 -2.660156 18.1875 -2.109375 C 17.445312 -1.554688 16.671875 -1.085938 15.859375 -0.703125 C 15.046875 -0.328125 14.175781 -0.0390625 13.25 0.15625 C 12.332031 0.363281 11.3125 0.46875 10.1875 0.46875 C 9.039062 0.46875 7.960938 0.304688 6.953125 -0.015625 C 5.941406 -0.335938 5.0625 -0.816406 4.3125 -1.453125 C 3.570312 -2.097656 2.984375 -2.910156 2.546875 -3.890625 C 2.109375 -4.867188 1.890625 -6.023438 1.890625 -7.359375 C 1.890625 -8.523438 2.207031 -9.644531 2.84375 -10.71875 C 3.488281 -11.789062 4.523438 -12.742188 5.953125 -13.578125 C 7.390625 -14.421875 9.265625 -15.109375 11.578125 -15.640625 C 13.890625 -16.171875 16.722656 -16.472656 20.078125 -16.546875 L 20.078125 -18.859375 C 20.078125 -21.140625 19.582031 -22.867188 18.59375 -24.046875 C 17.601562 -25.222656 16.15625 -25.8125 14.25 -25.8125 C 12.96875 -25.8125 11.894531 -25.648438 11.03125 -25.328125 C 10.175781 -25.003906 9.429688 -24.644531 8.796875 -24.25 C 8.171875 -23.851562 7.628906 -23.492188 7.171875 -23.171875 C 6.710938 -22.847656 6.257812 -22.6875 5.8125 -22.6875 C 5.46875 -22.6875 5.164062 -22.78125 4.90625 -22.96875 C 4.65625 -23.15625 4.445312 -23.382812 4.28125 -23.65625 Z M 3.34375 -25.3125 "/>
</symbol>
<symbol overflow="visible" id="glyph0-6">
<path style="stroke:none;" d="M 9.015625 -23.5625 C 9.953125 -25.582031 11.097656 -27.160156 12.453125 -28.296875 C 13.804688 -29.429688 15.460938 -30 17.421875 -30 C 18.046875 -30 18.644531 -29.929688 19.21875 -29.796875 C 19.789062 -29.660156 20.300781 -29.445312 20.75 -29.15625 L 20.359375 -25.28125 C 20.242188 -24.800781 19.957031 -24.5625 19.5 -24.5625 C 19.21875 -24.5625 18.816406 -24.617188 18.296875 -24.734375 C 17.773438 -24.847656 17.1875 -24.90625 16.53125 -24.90625 C 15.59375 -24.90625 14.757812 -24.769531 14.03125 -24.5 C 13.3125 -24.226562 12.664062 -23.820312 12.09375 -23.28125 C 11.519531 -22.75 11.003906 -22.09375 10.546875 -21.3125 C 10.085938 -20.53125 9.675781 -19.632812 9.3125 -18.625 L 9.3125 0 L 4.109375 0 L 4.109375 -29.46875 L 7.0625 -29.46875 C 7.625 -29.46875 8.007812 -29.359375 8.21875 -29.140625 C 8.4375 -28.929688 8.585938 -28.566406 8.671875 -28.046875 Z M 9.015625 -23.5625 "/>
</symbol>
<symbol overflow="visible" id="glyph0-7">
<path style="stroke:none;" d="M 13.15625 0.46875 C 10.820312 0.46875 9.03125 -0.179688 7.78125 -1.484375 C 6.53125 -2.785156 5.90625 -4.65625 5.90625 -7.09375 L 5.90625 -25.140625 L 2.359375 -25.140625 C 2.046875 -25.140625 1.78125 -25.226562 1.5625 -25.40625 C 1.351562 -25.59375 1.25 -25.878906 1.25 -26.265625 L 1.25 -28.34375 L 6.078125 -28.953125 L 7.265625 -38.046875 C 7.328125 -38.335938 7.457031 -38.578125 7.65625 -38.765625 C 7.863281 -38.953125 8.132812 -39.046875 8.46875 -39.046875 L 11.078125 -39.046875 L 11.078125 -28.890625 L 19.609375 -28.890625 L 19.609375 -25.140625 L 11.078125 -25.140625 L 11.078125 -7.453125 C 11.078125 -6.210938 11.378906 -5.289062 11.984375 -4.6875 C 12.585938 -4.082031 13.363281 -3.78125 14.3125 -3.78125 C 14.851562 -3.78125 15.320312 -3.851562 15.71875 -4 C 16.125 -4.144531 16.46875 -4.304688 16.75 -4.484375 C 17.039062 -4.660156 17.289062 -4.816406 17.5 -4.953125 C 17.707031 -5.097656 17.882812 -5.171875 18.03125 -5.171875 C 18.3125 -5.171875 18.554688 -5.007812 18.765625 -4.6875 L 20.28125 -2.21875 C 19.382812 -1.375 18.304688 -0.710938 17.046875 -0.234375 C 15.785156 0.234375 14.488281 0.46875 13.15625 0.46875 Z M 13.15625 0.46875 "/>
</symbol>
<symbol overflow="visible" id="glyph0-8">
<path style="stroke:none;" d="M 8.984375 -25.1875 C 9.628906 -25.90625 10.3125 -26.554688 11.03125 -27.140625 C 11.75 -27.722656 12.507812 -28.222656 13.3125 -28.640625 C 14.113281 -29.054688 14.960938 -29.375 15.859375 -29.59375 C 16.765625 -29.820312 17.742188 -29.9375 18.796875 -29.9375 C 20.398438 -29.9375 21.816406 -29.671875 23.046875 -29.140625 C 24.285156 -28.609375 25.316406 -27.851562 26.140625 -26.875 C 26.960938 -25.894531 27.585938 -24.710938 28.015625 -23.328125 C 28.441406 -21.953125 28.65625 -20.429688 28.65625 -18.765625 L 28.65625 0 L 23.453125 0 L 23.453125 -18.765625 C 23.453125 -20.992188 22.941406 -22.722656 21.921875 -23.953125 C 20.898438 -25.191406 19.351562 -25.8125 17.28125 -25.8125 C 15.75 -25.8125 14.316406 -25.441406 12.984375 -24.703125 C 11.660156 -23.960938 10.4375 -22.960938 9.3125 -21.703125 L 9.3125 0 L 4.109375 0 L 4.109375 -29.46875 L 7.21875 -29.46875 C 7.957031 -29.46875 8.410156 -29.109375 8.578125 -28.390625 Z M 8.984375 -25.1875 "/>
</symbol>
<symbol overflow="visible" id="glyph0-9">
<path style="stroke:none;" d="M 23.828125 -17.953125 C 23.828125 -19.148438 23.65625 -20.25 23.3125 -21.25 C 22.976562 -22.25 22.484375 -23.113281 21.828125 -23.84375 C 21.179688 -24.570312 20.390625 -25.132812 19.453125 -25.53125 C 18.523438 -25.925781 17.472656 -26.125 16.296875 -26.125 C 13.804688 -26.125 11.835938 -25.398438 10.390625 -23.953125 C 8.953125 -22.515625 8.054688 -20.515625 7.703125 -17.953125 Z M 28.015625 -4.125 C 27.378906 -3.351562 26.613281 -2.679688 25.71875 -2.109375 C 24.820312 -1.535156 23.863281 -1.0625 22.84375 -0.6875 C 21.832031 -0.320312 20.78125 -0.0507812 19.6875 0.125 C 18.601562 0.3125 17.53125 0.40625 16.46875 0.40625 C 14.425781 0.40625 12.546875 0.0625 10.828125 -0.625 C 9.117188 -1.3125 7.640625 -2.316406 6.390625 -3.640625 C 5.140625 -4.972656 4.164062 -6.617188 3.46875 -8.578125 C 2.769531 -10.535156 2.421875 -12.785156 2.421875 -15.328125 C 2.421875 -17.390625 2.734375 -19.3125 3.359375 -21.09375 C 3.992188 -22.875 4.898438 -24.421875 6.078125 -25.734375 C 7.265625 -27.046875 8.707031 -28.070312 10.40625 -28.8125 C 12.113281 -29.5625 14.035156 -29.9375 16.171875 -29.9375 C 17.941406 -29.9375 19.578125 -29.640625 21.078125 -29.046875 C 22.578125 -28.453125 23.875 -27.597656 24.96875 -26.484375 C 26.070312 -25.367188 26.929688 -23.992188 27.546875 -22.359375 C 28.171875 -20.722656 28.484375 -18.859375 28.484375 -16.765625 C 28.484375 -15.941406 28.394531 -15.394531 28.21875 -15.125 C 28.039062 -14.851562 27.710938 -14.71875 27.234375 -14.71875 L 7.53125 -14.71875 C 7.59375 -12.851562 7.847656 -11.234375 8.296875 -9.859375 C 8.753906 -8.484375 9.390625 -7.332031 10.203125 -6.40625 C 11.023438 -5.488281 12 -4.800781 13.125 -4.34375 C 14.25 -3.894531 15.507812 -3.671875 16.90625 -3.671875 C 18.207031 -3.671875 19.328125 -3.816406 20.265625 -4.109375 C 21.203125 -4.410156 22.007812 -4.734375 22.6875 -5.078125 C 23.375 -5.429688 23.941406 -5.757812 24.390625 -6.0625 C 24.847656 -6.363281 25.242188 -6.515625 25.578125 -6.515625 C 26.003906 -6.515625 26.332031 -6.347656 26.5625 -6.015625 Z M 28.015625 -4.125 "/>
</symbol>
<symbol overflow="visible" id="glyph0-10">
<path style="stroke:none;" d="M 39.109375 -41.6875 L 39.109375 0 L 36.28125 0 C 35.832031 0 35.457031 -0.078125 35.15625 -0.234375 C 34.851562 -0.390625 34.554688 -0.648438 34.265625 -1.015625 L 10.15625 -32.4375 C 10.195312 -31.957031 10.222656 -31.484375 10.234375 -31.015625 C 10.253906 -30.546875 10.265625 -30.109375 10.265625 -29.703125 L 10.265625 0 L 5.328125 0 L 5.328125 -41.6875 L 8.234375 -41.6875 C 8.484375 -41.6875 8.695312 -41.671875 8.875 -41.640625 C 9.050781 -41.617188 9.207031 -41.570312 9.34375 -41.5 C 9.476562 -41.4375 9.613281 -41.335938 9.75 -41.203125 C 9.882812 -41.078125 10.03125 -40.921875 10.1875 -40.734375 L 34.296875 -9.34375 C 34.265625 -9.84375 34.234375 -10.328125 34.203125 -10.796875 C 34.171875 -11.273438 34.15625 -11.726562 34.15625 -12.15625 L 34.15625 -41.6875 Z M 39.109375 -41.6875 "/>
</symbol>
<symbol overflow="visible" id="glyph0-11">
<path style="stroke:none;" d="M 44.75 -29.46875 L 35.203125 0 L 31.09375 0 C 30.59375 0 30.242188 -0.328125 30.046875 -0.984375 L 23.53125 -20.984375 C 23.375 -21.421875 23.25 -21.867188 23.15625 -22.328125 C 23.0625 -22.785156 22.96875 -23.238281 22.875 -23.6875 C 22.769531 -23.238281 22.671875 -22.785156 22.578125 -22.328125 C 22.484375 -21.867188 22.359375 -21.410156 22.203125 -20.953125 L 15.5625 -0.984375 C 15.382812 -0.328125 15 0 14.40625 0 L 10.5 0 L 0.953125 -29.46875 L 5.03125 -29.46875 C 5.4375 -29.46875 5.78125 -29.359375 6.0625 -29.140625 C 6.34375 -28.929688 6.535156 -28.679688 6.640625 -28.390625 L 12.28125 -9.421875 C 12.601562 -8.023438 12.863281 -6.707031 13.0625 -5.46875 C 13.238281 -6.113281 13.414062 -6.765625 13.59375 -7.421875 C 13.78125 -8.078125 13.984375 -8.742188 14.203125 -9.421875 L 20.421875 -28.515625 C 20.515625 -28.804688 20.679688 -29.046875 20.921875 -29.234375 C 21.171875 -29.429688 21.46875 -29.53125 21.8125 -29.53125 L 24.09375 -29.53125 C 24.476562 -29.53125 24.796875 -29.429688 25.046875 -29.234375 C 25.296875 -29.046875 25.472656 -28.804688 25.578125 -28.515625 L 31.65625 -9.421875 C 31.863281 -8.742188 32.054688 -8.078125 32.234375 -7.421875 C 32.410156 -6.765625 32.578125 -6.113281 32.734375 -5.46875 C 32.828125 -6.113281 32.945312 -6.757812 33.09375 -7.40625 C 33.238281 -8.050781 33.398438 -8.722656 33.578125 -9.421875 L 39.328125 -28.390625 C 39.429688 -28.703125 39.617188 -28.957031 39.890625 -29.15625 C 40.160156 -29.363281 40.476562 -29.46875 40.84375 -29.46875 Z M 44.75 -29.46875 "/>
</symbol>
<symbol overflow="visible" id="glyph0-12">
<path style="stroke:none;" d="M 16.53125 -29.9375 C 18.675781 -29.9375 20.613281 -29.578125 22.34375 -28.859375 C 24.070312 -28.140625 25.546875 -27.117188 26.765625 -25.796875 C 27.984375 -24.484375 28.914062 -22.890625 29.5625 -21.015625 C 30.21875 -19.148438 30.546875 -17.0625 30.546875 -14.75 C 30.546875 -12.425781 30.21875 -10.332031 29.5625 -8.46875 C 28.914062 -6.601562 27.984375 -5.007812 26.765625 -3.6875 C 25.546875 -2.375 24.070312 -1.363281 22.34375 -0.65625 C 20.613281 0.0507812 18.675781 0.40625 16.53125 0.40625 C 14.351562 0.40625 12.394531 0.0507812 10.65625 -0.65625 C 8.925781 -1.363281 7.445312 -2.375 6.21875 -3.6875 C 5 -5.007812 4.0625 -6.601562 3.40625 -8.46875 C 2.757812 -10.332031 2.4375 -12.425781 2.4375 -14.75 C 2.4375 -17.0625 2.757812 -19.148438 3.40625 -21.015625 C 4.0625 -22.890625 5 -24.484375 6.21875 -25.796875 C 7.445312 -27.117188 8.925781 -28.140625 10.65625 -28.859375 C 12.394531 -29.578125 14.351562 -29.9375 16.53125 -29.9375 Z M 16.53125 -3.640625 C 19.4375 -3.640625 21.601562 -4.613281 23.03125 -6.5625 C 24.46875 -8.507812 25.1875 -11.226562 25.1875 -14.71875 C 25.1875 -18.226562 24.46875 -20.960938 23.03125 -22.921875 C 21.601562 -24.878906 19.4375 -25.859375 16.53125 -25.859375 C 15.050781 -25.859375 13.765625 -25.601562 12.671875 -25.09375 C 11.578125 -24.59375 10.664062 -23.867188 9.9375 -22.921875 C 9.207031 -21.972656 8.660156 -20.804688 8.296875 -19.421875 C 7.941406 -18.035156 7.765625 -16.46875 7.765625 -14.71875 C 7.765625 -11.226562 8.488281 -8.507812 9.9375 -6.5625 C 11.382812 -4.613281 13.582031 -3.640625 16.53125 -3.640625 Z M 16.53125 -3.640625 "/>
</symbol>
<symbol overflow="visible" id="glyph0-13">
<path style="stroke:none;" d="M 9.3125 -42.859375 L 9.3125 -17.625 L 10.640625 -17.625 C 11.035156 -17.625 11.363281 -17.675781 11.625 -17.78125 C 11.882812 -17.894531 12.160156 -18.117188 12.453125 -18.453125 L 21.765625 -28.421875 C 22.035156 -28.753906 22.320312 -29.007812 22.625 -29.1875 C 22.925781 -29.375 23.328125 -29.46875 23.828125 -29.46875 L 28.515625 -29.46875 L 17.65625 -17.921875 C 17.132812 -17.265625 16.570312 -16.75 15.96875 -16.375 C 16.320312 -16.144531 16.640625 -15.878906 16.921875 -15.578125 C 17.203125 -15.273438 17.46875 -14.929688 17.71875 -14.546875 L 29.234375 0 L 24.609375 0 C 24.160156 0 23.773438 -0.0703125 23.453125 -0.21875 C 23.140625 -0.363281 22.867188 -0.628906 22.640625 -1.015625 L 12.953125 -13.09375 C 12.660156 -13.5 12.375 -13.765625 12.09375 -13.890625 C 11.8125 -14.015625 11.378906 -14.078125 10.796875 -14.078125 L 9.3125 -14.078125 L 9.3125 0 L 4.109375 0 L 4.109375 -42.859375 Z M 9.3125 -42.859375 "/>
</symbol>
<symbol overflow="visible" id="glyph1-0">
<path style="stroke:none;" d="M 2.40625 4.015625 L 2.40625 -30.109375 L 18.21875 -30.109375 L 18.21875 4.015625 Z M 2.40625 4.015625 "/>
</symbol>
<symbol overflow="visible" id="glyph1-1">
<path style="stroke:none;" d="M 0.71875 -22.953125 L 0.71875 -28.09375 L 25.453125 -28.09375 L 25.453125 -22.953125 L 16.015625 -22.953125 L 16.015625 0 L 10.203125 0 L 10.203125 -22.953125 Z M 0.71875 -22.953125 "/>
</symbol>
<symbol overflow="visible" id="glyph1-2">
<path style="stroke:none;" d="M 20.90625 -2.609375 C 19.625 -1.566406 18.304688 -0.800781 16.953125 -0.3125 C 15.609375 0.164062 14.101562 0.40625 12.4375 0.40625 C 10.863281 0.40625 9.382812 0.125 8 -0.4375 C 6.625 -1 5.4375 -1.757812 4.4375 -2.71875 C 3.4375 -3.6875 2.644531 -4.832031 2.0625 -6.15625 C 1.488281 -7.488281 1.203125 -8.914062 1.203125 -10.4375 C 1.203125 -11.9375 1.472656 -13.347656 2.015625 -14.671875 C 2.566406 -15.992188 3.320312 -17.144531 4.28125 -18.125 C 5.25 -19.101562 6.394531 -19.875 7.71875 -20.4375 C 9.050781 -21 10.46875 -21.28125 11.96875 -21.28125 C 13.4375 -21.28125 14.804688 -20.988281 16.078125 -20.40625 C 17.347656 -19.832031 18.441406 -19.050781 19.359375 -18.0625 C 20.285156 -17.070312 21.007812 -15.882812 21.53125 -14.5 C 22.050781 -13.125 22.3125 -11.632812 22.3125 -10.03125 L 22.3125 -8.59375 L 6.75 -8.59375 C 7.125 -7.28125 7.84375 -6.222656 8.90625 -5.421875 C 9.976562 -4.617188 11.238281 -4.21875 12.6875 -4.21875 C 13.59375 -4.21875 14.445312 -4.363281 15.25 -4.65625 C 16.050781 -4.945312 16.734375 -5.363281 17.296875 -5.90625 Z M 11.84375 -16.734375 C 10.582031 -16.734375 9.492188 -16.351562 8.578125 -15.59375 C 7.671875 -14.832031 7.046875 -13.8125 6.703125 -12.53125 L 16.9375 -12.53125 C 16.59375 -13.757812 15.957031 -14.765625 15.03125 -15.546875 C 14.101562 -16.335938 13.039062 -16.734375 11.84375 -16.734375 Z M 11.84375 -16.734375 "/>
</symbol>
<symbol overflow="visible" id="glyph1-3">
<path style="stroke:none;" d="M 12.40625 -4.421875 C 13.34375 -4.421875 14.21875 -4.609375 15.03125 -4.984375 C 15.84375 -5.359375 16.625 -5.945312 17.375 -6.75 L 20.671875 -3.328125 C 19.597656 -2.148438 18.3125 -1.234375 16.8125 -0.578125 C 15.320312 0.078125 13.769531 0.40625 12.15625 0.40625 C 10.632812 0.40625 9.195312 0.125 7.84375 -0.4375 C 6.5 -1 5.335938 -1.757812 4.359375 -2.71875 C 3.378906 -3.6875 2.609375 -4.832031 2.046875 -6.15625 C 1.484375 -7.488281 1.203125 -8.914062 1.203125 -10.4375 C 1.203125 -11.957031 1.484375 -13.378906 2.046875 -14.703125 C 2.609375 -16.035156 3.378906 -17.1875 4.359375 -18.15625 C 5.335938 -19.132812 6.5 -19.90625 7.84375 -20.46875 C 9.195312 -21.03125 10.632812 -21.3125 12.15625 -21.3125 C 13.820312 -21.3125 15.414062 -20.984375 16.9375 -20.328125 C 18.46875 -19.671875 19.765625 -18.753906 20.828125 -17.578125 L 17.46875 -14.015625 C 16.71875 -14.835938 15.910156 -15.460938 15.046875 -15.890625 C 14.191406 -16.316406 13.269531 -16.53125 12.28125 -16.53125 C 10.707031 -16.53125 9.375 -15.941406 8.28125 -14.765625 C 7.195312 -13.585938 6.65625 -12.144531 6.65625 -10.4375 C 6.65625 -8.726562 7.210938 -7.296875 8.328125 -6.140625 C 9.441406 -4.992188 10.800781 -4.421875 12.40625 -4.421875 Z M 12.40625 -4.421875 "/>
</symbol>
<symbol overflow="visible" id="glyph1-4">
<path style="stroke:none;" d="M 2.171875 0 L 2.171875 -28.09375 L 7.671875 -29.296875 L 7.671875 -19.265625 C 8.472656 -19.929688 9.359375 -20.4375 10.328125 -20.78125 C 11.304688 -21.132812 12.375 -21.3125 13.53125 -21.3125 C 15.9375 -21.3125 17.914062 -20.535156 19.46875 -18.984375 C 21.019531 -17.429688 21.796875 -15.4375 21.796875 -13 L 21.796875 0 L 16.296875 0 L 16.296875 -12.203125 C 16.296875 -13.515625 15.898438 -14.570312 15.109375 -15.375 C 14.316406 -16.175781 13.269531 -16.578125 11.96875 -16.578125 C 11.050781 -16.578125 10.222656 -16.394531 9.484375 -16.03125 C 8.753906 -15.675781 8.148438 -15.160156 7.671875 -14.484375 L 7.671875 0 Z M 2.171875 0 "/>
</symbol>
<symbol overflow="visible" id="glyph1-5">
<path style="stroke:none;" d="M 2.171875 0 L 2.171875 -20.90625 L 7.671875 -20.90625 L 7.671875 -19.265625 C 8.472656 -19.929688 9.359375 -20.4375 10.328125 -20.78125 C 11.304688 -21.132812 12.375 -21.3125 13.53125 -21.3125 C 15.9375 -21.3125 17.914062 -20.535156 19.46875 -18.984375 C 21.019531 -17.429688 21.796875 -15.4375 21.796875 -13 L 21.796875 0 L 16.296875 0 L 16.296875 -12.203125 C 16.296875 -13.515625 15.898438 -14.570312 15.109375 -15.375 C 14.316406 -16.175781 13.269531 -16.578125 11.96875 -16.578125 C 11.050781 -16.578125 10.222656 -16.394531 9.484375 -16.03125 C 8.753906 -15.675781 8.148438 -15.160156 7.671875 -14.484375 L 7.671875 0 Z M 2.171875 0 "/>
</symbol>
<symbol overflow="visible" id="glyph1-6">
<path style="stroke:none;" d="M 1.203125 -10.4375 C 1.203125 -11.957031 1.488281 -13.378906 2.0625 -14.703125 C 2.644531 -16.035156 3.4375 -17.1875 4.4375 -18.15625 C 5.4375 -19.132812 6.617188 -19.90625 7.984375 -20.46875 C 9.347656 -21.03125 10.804688 -21.3125 12.359375 -21.3125 C 13.910156 -21.3125 15.367188 -21.03125 16.734375 -20.46875 C 18.097656 -19.90625 19.28125 -19.132812 20.28125 -18.15625 C 21.289062 -17.1875 22.082031 -16.035156 22.65625 -14.703125 C 23.226562 -13.378906 23.515625 -11.957031 23.515625 -10.4375 C 23.515625 -8.914062 23.226562 -7.488281 22.65625 -6.15625 C 22.082031 -4.832031 21.289062 -3.6875 20.28125 -2.71875 C 19.28125 -1.757812 18.097656 -1 16.734375 -0.4375 C 15.367188 0.125 13.910156 0.40625 12.359375 0.40625 C 10.804688 0.40625 9.347656 0.125 7.984375 -0.4375 C 6.617188 -1 5.4375 -1.757812 4.4375 -2.71875 C 3.4375 -3.6875 2.644531 -4.832031 2.0625 -6.15625 C 1.488281 -7.488281 1.203125 -8.914062 1.203125 -10.4375 Z M 12.359375 -4.375 C 13.960938 -4.375 15.328125 -4.960938 16.453125 -6.140625 C 17.578125 -7.316406 18.140625 -8.75 18.140625 -10.4375 C 18.140625 -12.144531 17.578125 -13.585938 16.453125 -14.765625 C 15.328125 -15.941406 13.960938 -16.53125 12.359375 -16.53125 C 10.753906 -16.53125 9.390625 -15.941406 8.265625 -14.765625 C 7.140625 -13.585938 6.578125 -12.144531 6.578125 -10.4375 C 6.578125 -8.75 7.140625 -7.316406 8.265625 -6.140625 C 9.390625 -4.960938 10.753906 -4.375 12.359375 -4.375 Z M 12.359375 -4.375 "/>
</symbol>
<symbol overflow="visible" id="glyph1-7">
<path style="stroke:none;" d="M 7.671875 -29.296875 L 7.671875 0 L 2.171875 0 L 2.171875 -28.09375 Z M 7.671875 -29.296875 "/>
</symbol>
<symbol overflow="visible" id="glyph1-8">
<path style="stroke:none;" d="M 11.796875 0.125 C 10.328125 0.125 8.941406 -0.15625 7.640625 -0.71875 C 6.347656 -1.28125 5.222656 -2.039062 4.265625 -3 C 3.316406 -3.96875 2.566406 -5.097656 2.015625 -6.390625 C 1.472656 -7.691406 1.203125 -9.09375 1.203125 -10.59375 C 1.203125 -12.070312 1.484375 -13.457031 2.046875 -14.75 C 2.609375 -16.050781 3.367188 -17.179688 4.328125 -18.140625 C 5.296875 -19.109375 6.4375 -19.863281 7.75 -20.40625 C 9.0625 -20.957031 10.46875 -21.234375 11.96875 -21.234375 C 13.007812 -21.234375 14.003906 -21.082031 14.953125 -20.78125 C 15.898438 -20.488281 16.789062 -20.078125 17.625 -19.546875 L 17.625 -20.90625 L 23.046875 -20.90625 L 23.046875 0 C 23.046875 2.757812 22.15625 4.882812 20.375 6.375 C 18.59375 7.875 16.03125 8.625 12.6875 8.625 C 11.082031 8.625 9.535156 8.460938 8.046875 8.140625 C 6.566406 7.828125 5.207031 7.363281 3.96875 6.75 L 5.90625 2.453125 C 7.050781 3.015625 8.171875 3.4375 9.265625 3.71875 C 10.367188 4 11.46875 4.140625 12.5625 4.140625 C 14.195312 4.140625 15.4375 3.78125 16.28125 3.0625 C 17.125 2.351562 17.546875 1.316406 17.546875 -0.046875 L 17.546875 -1.765625 C 16.710938 -1.148438 15.804688 -0.679688 14.828125 -0.359375 C 13.847656 -0.0351562 12.835938 0.125 11.796875 0.125 Z M 6.625 -10.59375 C 6.625 -8.90625 7.203125 -7.472656 8.359375 -6.296875 C 9.523438 -5.117188 10.953125 -4.53125 12.640625 -4.53125 C 13.628906 -4.53125 14.539062 -4.695312 15.375 -5.03125 C 16.207031 -5.375 16.929688 -5.835938 17.546875 -6.421875 L 17.546875 -14.65625 C 16.953125 -15.238281 16.226562 -15.695312 15.375 -16.03125 C 14.519531 -16.363281 13.625 -16.53125 12.6875 -16.53125 C 11 -16.53125 9.566406 -15.953125 8.390625 -14.796875 C 7.210938 -13.648438 6.625 -12.25 6.625 -10.59375 Z M 6.625 -10.59375 "/>
</symbol>
<symbol overflow="visible" id="glyph1-9">
<path style="stroke:none;" d="M 7.828125 0.96875 L 8.15625 0.203125 L 0 -20.90625 L 6.0625 -20.90625 L 11.234375 -6.65625 L 17.1875 -20.90625 L 23.125 -20.90625 L 13.484375 1.640625 C 12.410156 4.160156 11.164062 5.953125 9.75 7.015625 C 8.332031 8.085938 6.488281 8.625 4.21875 8.625 C 3.738281 8.625 3.273438 8.601562 2.828125 8.5625 C 2.390625 8.53125 2.035156 8.472656 1.765625 8.390625 L 1.765625 3.65625 C 2.035156 3.707031 2.316406 3.742188 2.609375 3.765625 C 2.898438 3.796875 3.257812 3.8125 3.6875 3.8125 C 4.675781 3.8125 5.507812 3.570312 6.1875 3.09375 C 6.875 2.613281 7.421875 1.90625 7.828125 0.96875 Z M 7.828125 0.96875 "/>
</symbol>
<symbol overflow="visible" id="glyph1-10">
<path style="stroke:none;" d="M 2.53125 0 L 2.53125 -28.09375 L 16.625 -28.09375 C 17.988281 -28.09375 19.25 -27.875 20.40625 -27.4375 C 21.570312 -27 22.566406 -26.390625 23.390625 -25.609375 C 24.222656 -24.835938 24.875 -23.90625 25.34375 -22.8125 C 25.8125 -21.726562 26.046875 -20.546875 26.046875 -19.265625 C 26.046875 -18.003906 25.8125 -16.84375 25.34375 -15.78125 C 24.875 -14.726562 24.21875 -13.8125 23.375 -13.03125 C 22.539062 -12.257812 21.546875 -11.660156 20.390625 -11.234375 C 19.242188 -10.804688 17.988281 -10.59375 16.625 -10.59375 L 8.34375 -10.59375 L 8.34375 0 Z M 15.96875 -23.078125 L 8.34375 -23.078125 L 8.34375 -15.40625 L 15.96875 -15.40625 C 17.226562 -15.40625 18.238281 -15.753906 19 -16.453125 C 19.769531 -17.148438 20.15625 -18.078125 20.15625 -19.234375 C 20.15625 -20.378906 19.769531 -21.304688 19 -22.015625 C 18.238281 -22.722656 17.226562 -23.078125 15.96875 -23.078125 Z M 15.96875 -23.078125 "/>
</symbol>
<symbol overflow="visible" id="glyph1-11">
<path style="stroke:none;" d="M 8.796875 0.359375 C 6.546875 0.359375 4.710938 -0.234375 3.296875 -1.421875 C 1.878906 -2.617188 1.171875 -4.164062 1.171875 -6.0625 C 1.171875 -8.039062 1.929688 -9.59375 3.453125 -10.71875 C 4.972656 -11.84375 7.070312 -12.40625 9.75 -12.40625 C 10.601562 -12.40625 11.457031 -12.335938 12.3125 -12.203125 C 13.175781 -12.066406 14.023438 -11.863281 14.859375 -11.59375 L 14.859375 -13.078125 C 14.859375 -14.285156 14.484375 -15.195312 13.734375 -15.8125 C 12.984375 -16.425781 11.882812 -16.734375 10.4375 -16.734375 C 9.550781 -16.734375 8.59375 -16.59375 7.5625 -16.3125 C 6.53125 -16.03125 5.359375 -15.597656 4.046875 -15.015625 L 2.046875 -19.0625 C 3.679688 -19.8125 5.265625 -20.375 6.796875 -20.75 C 8.335938 -21.125 9.859375 -21.3125 11.359375 -21.3125 C 14.171875 -21.3125 16.359375 -20.632812 17.921875 -19.28125 C 19.484375 -17.9375 20.265625 -16.03125 20.265625 -13.5625 L 20.265625 0 L 14.859375 0 L 14.859375 -1.4375 C 13.972656 -0.820312 13.039062 -0.367188 12.0625 -0.078125 C 11.082031 0.210938 9.992188 0.359375 8.796875 0.359375 Z M 6.421875 -6.1875 C 6.421875 -5.382812 6.769531 -4.75 7.46875 -4.28125 C 8.164062 -3.8125 9.085938 -3.578125 10.234375 -3.578125 C 11.140625 -3.578125 11.972656 -3.6875 12.734375 -3.90625 C 13.503906 -4.132812 14.210938 -4.460938 14.859375 -4.890625 L 14.859375 -8.03125 C 14.179688 -8.289062 13.472656 -8.484375 12.734375 -8.609375 C 12.003906 -8.734375 11.238281 -8.796875 10.4375 -8.796875 C 9.175781 -8.796875 8.191406 -8.5625 7.484375 -8.09375 C 6.773438 -7.625 6.421875 -6.988281 6.421875 -6.1875 Z M 6.421875 -6.1875 "/>
</symbol>
<symbol overflow="visible" id="glyph1-12">
<path style="stroke:none;" d="M 2.171875 0 L 2.171875 -20.90625 L 7.671875 -20.90625 L 7.671875 -18.625 C 8.335938 -19.53125 9.144531 -20.21875 10.09375 -20.6875 C 11.039062 -21.15625 12.09375 -21.390625 13.25 -21.390625 C 13.78125 -21.367188 14.226562 -21.320312 14.59375 -21.25 C 14.957031 -21.1875 15.269531 -21.070312 15.53125 -20.90625 L 15.53125 -16.09375 C 15.132812 -16.28125 14.691406 -16.421875 14.203125 -16.515625 C 13.722656 -16.609375 13.226562 -16.65625 12.71875 -16.65625 C 11.65625 -16.65625 10.671875 -16.382812 9.765625 -15.84375 C 8.867188 -15.3125 8.171875 -14.539062 7.671875 -13.53125 L 7.671875 0 Z M 2.171875 0 "/>
</symbol>
<symbol overflow="visible" id="glyph1-13">
<path style="stroke:none;" d="M 5.015625 -5.90625 L 5.015625 -16.296875 L 0.71875 -16.296875 L 0.71875 -20.90625 L 5.015625 -20.90625 L 5.015625 -26.25 L 10.515625 -27.5 L 10.515625 -20.90625 L 16.453125 -20.90625 L 16.453125 -16.296875 L 10.515625 -16.296875 L 10.515625 -7.03125 C 10.515625 -6.039062 10.726562 -5.34375 11.15625 -4.9375 C 11.582031 -4.53125 12.332031 -4.328125 13.40625 -4.328125 C 13.914062 -4.328125 14.394531 -4.359375 14.84375 -4.421875 C 15.300781 -4.492188 15.800781 -4.625 16.34375 -4.8125 L 16.34375 -0.328125 C 15.75 -0.140625 15.035156 0.015625 14.203125 0.140625 C 13.378906 0.265625 12.671875 0.328125 12.078125 0.328125 C 9.753906 0.328125 7.992188 -0.195312 6.796875 -1.25 C 5.609375 -2.3125 5.015625 -3.863281 5.015625 -5.90625 Z M 5.015625 -5.90625 "/>
</symbol>
</g>
<filter id="alpha" filterUnits="objectBoundingBox" x="0%" y="0%" width="100%" height="100%">
  <feColorMatrix type="matrix" in="SourceGraphic" values="0 0 0 0 1 0 0 0 0 1 0 0 0 0 1 0 0 0 1 0"/>
</filter>
<mask id="mask0">
  <g filter="url(#alpha)">
<rect x="0" y="0" width="1230" height="693.000001" style="fill:rgb(0%,0%,0%);fill-opacity:0.8588;stroke:none;"/>
  </g>
</mask>
<clipPath id="clip2">
  <path d="M 1 0.535156 L 1091.8125 0.535156 L 1091.8125 382 L 1 382 Z M 1 0.535156 "/>
</clipPath>
<clipPath id="clip1">
  <rect x="0" y="0" width="1092" height="383"/>
</clipPath>
<g id="surface5" clip-path="url(#clip1)">
<g clip-path="url(#clip2)" clip-rule="nonzero">
<path style=" stroke:none;fill-rule:nonzero;fill:rgb(13.729858%,12.159729%,12.548828%);fill-opacity:1;" d="M 104.164062 0.703125 L 104.164062 381.621094 C 105.277344 381.699219 106.394531 381.699219 107.511719 381.699219 L 984.1875 381.699219 L 984.1875 0.703125 Z M 1012.882812 0.703125 L 984.1875 0.703125 L 984.1875 381.621094 L 984.824219 381.621094 C 1031.21875 381.621094 1071.953125 343.734375 1075.300781 297.476562 L 1091.003906 84.765625 C 1094.429688 38.585938 1059.277344 0.703125 1012.882812 0.703125 Z M 79.453125 0.703125 C 33.058594 0.703125 -2.09375 38.585938 1.332031 84.84375 L 17.035156 297.558594 C 20.382812 342.699219 59.285156 379.867188 104.242188 381.621094 L 104.242188 0.703125 Z M 79.453125 0.703125 "/>
</g>
</g>
<clipPath id="clip3">
  <path d="M 636 285 L 740 285 L 740 366.429688 L 636 366.429688 Z M 636 285 "/>
</clipPath>
<clipPath id="clip4">
  <path d="M 498 293 L 595 293 L 595 366.429688 L 498 366.429688 Z M 498 293 "/>
</clipPath>
<clipPath id="clip5">
  <path d="M 525 209.90625 L 666 209.90625 L 666 350 L 525 350 Z M 525 209.90625 "/>
</clipPath>
</defs>
<g id="surface1">
<use xlink:href="#surface5" transform="matrix(1,0,0,1,69,155)" mask="url(#mask0)"/>
<path style=" stroke:none;fill-rule:nonzero;fill:rgb(100%,39.99939%,0%);fill-opacity:1;" d="M 185.238281 294.109375 C 185.238281 297.59375 184.625 301.28125 183.390625 304.558594 C 182.160156 307.628906 180.3125 310.292969 178.050781 312.753906 C 175.792969 315.007812 172.917969 316.851562 169.835938 318.285156 C 166.550781 319.71875 163.0625 320.332031 159.570312 320.332031 C 155.871094 320.332031 152.382812 319.71875 148.890625 318.285156 C 142.523438 315.824219 137.390625 310.703125 134.71875 304.558594 C 133.28125 301.28125 132.667969 297.796875 132.667969 294.3125 C 132.667969 287.347656 135.335938 280.585938 140.46875 275.671875 C 142.933594 273.210938 145.808594 271.367188 148.890625 270.140625 C 152.175781 268.703125 155.871094 268.089844 159.363281 268.089844 C 163.472656 268.089844 167.578125 268.910156 171.273438 270.546875 C 174.765625 272.1875 178.050781 274.441406 180.515625 277.515625 L 173.125 284.273438 C 171.480469 282.226562 169.425781 280.585938 166.960938 279.359375 C 164.5 278.128906 162.035156 277.71875 159.363281 277.71875 C 152.792969 277.71875 146.835938 281.613281 144.578125 287.757812 C 142.933594 292.058594 142.933594 296.773438 144.578125 300.871094 C 145.398438 302.917969 146.425781 304.558594 148.070312 306.195312 C 149.507812 307.628906 151.355469 308.859375 153.203125 309.679688 C 155.257812 310.5 157.515625 310.910156 159.570312 310.910156 C 162.855469 310.910156 166.140625 309.882812 168.8125 307.835938 C 171.273438 305.992188 173.125 303.328125 173.535156 300.253906 L 158.542969 300.253906 L 158.542969 291.035156 L 184.828125 291.035156 Z M 185.238281 294.109375 "/>
<path style=" stroke:none;fill-rule:nonzero;fill:rgb(100%,39.99939%,0%);fill-opacity:1;" d="M 188.117188 311.320312 L 194.070312 303.738281 C 196.535156 305.992188 199.410156 307.835938 202.695312 309.269531 C 205.367188 310.5 208.445312 311.113281 211.320312 311.113281 C 213.992188 311.320312 216.660156 310.703125 218.921875 309.476562 C 220.5625 308.65625 221.796875 306.8125 221.796875 304.761719 C 221.796875 303.125 221.179688 301.691406 219.945312 300.664062 C 218.097656 299.4375 215.839844 298.617188 213.582031 298.410156 L 203.519531 296.773438 C 199.820312 296.363281 196.328125 294.722656 193.660156 292.265625 C 191.402344 289.808594 190.167969 286.527344 190.167969 283.25 C 189.964844 278.742188 192.015625 274.644531 195.507812 271.984375 C 199.820312 269.113281 204.957031 267.679688 210.089844 267.886719 C 213.785156 267.886719 217.6875 268.5 221.179688 269.730469 C 224.671875 270.957031 228.160156 272.597656 231.035156 274.851562 L 225.285156 282.636719 C 222.820312 280.792969 220.152344 279.152344 217.277344 278.128906 C 214.605469 277.105469 211.9375 276.695312 209.269531 276.695312 C 207.007812 276.488281 204.542969 277.105469 202.492188 278.332031 C 201.054688 279.152344 200.027344 280.792969 200.027344 282.429688 C 200.027344 283.867188 200.640625 285.09375 201.667969 286.117188 C 203.3125 287.144531 205.367188 287.757812 207.214844 287.964844 L 216.867188 289.601562 C 220.972656 290.011719 225.082031 291.652344 228.160156 294.3125 C 230.832031 296.773438 232.0625 300.253906 232.0625 303.738281 C 232.269531 308.449219 230.007812 312.753906 226.3125 315.621094 C 221.796875 318.695312 216.25 320.332031 210.707031 320.128906 C 206.597656 320.128906 202.492188 319.308594 198.589844 317.875 C 194.6875 316.234375 191.195312 314.1875 188.117188 311.320312 Z M 188.117188 311.320312 "/>
<path style=" stroke:none;fill-rule:nonzero;fill:rgb(100%,39.99939%,0%);fill-opacity:1;" d="M 265.742188 315.007812 C 268.824219 315.007812 271.902344 314.390625 274.777344 313.164062 C 277.449219 311.933594 279.914062 310.292969 281.96875 308.039062 L 285.664062 311.726562 C 283.199219 314.390625 280.117188 316.441406 276.628906 317.875 C 273.136719 319.308594 269.441406 320.128906 265.742188 320.128906 C 258.761719 320.128906 251.984375 317.464844 247.054688 312.546875 C 244.589844 310.089844 242.742188 307.425781 241.511719 304.148438 C 238.839844 297.59375 238.839844 290.214844 241.511719 283.660156 C 242.742188 280.585938 244.796875 277.71875 247.054688 275.261719 C 249.519531 272.800781 252.394531 270.957031 255.476562 269.730469 C 258.761719 268.296875 262.253906 267.679688 265.742188 267.679688 C 269.644531 267.679688 273.339844 268.5 276.832031 269.933594 C 280.324219 271.367188 283.199219 273.417969 285.867188 276.082031 L 282.171875 279.972656 C 280.117188 277.71875 277.65625 275.875 274.777344 274.851562 C 271.902344 273.621094 268.824219 273.007812 265.742188 273.007812 C 262.867188 273.007812 260.199219 273.621094 257.527344 274.644531 C 252.601562 276.695312 248.699219 280.792969 246.644531 285.710938 C 244.589844 291.035156 244.589844 296.976562 246.644531 302.304688 C 247.671875 304.761719 249.109375 307.015625 250.957031 308.859375 C 254.859375 312.957031 260.199219 315.210938 265.742188 315.007812 Z M 265.742188 315.007812 "/>
<path style=" stroke:none;fill-rule:nonzero;fill:rgb(100%,39.99939%,0%);fill-opacity:1;" d="M 298.601562 267.476562 L 298.601562 319.511719 L 293.058594 319.511719 L 293.058594 268.703125 Z M 298.601562 267.476562 "/>
<path style=" stroke:none;fill-rule:nonzero;fill:rgb(100%,39.99939%,0%);fill-opacity:1;" d="M 305.996094 301.28125 C 305.996094 296.363281 307.84375 291.445312 311.335938 287.757812 C 318.523438 280.585938 330.226562 280.382812 337.414062 287.554688 C 337.414062 287.554688 337.621094 287.757812 337.621094 287.757812 C 339.265625 289.601562 340.703125 291.652344 341.523438 293.902344 C 344.398438 301.074219 342.960938 309.269531 337.621094 314.800781 C 335.976562 316.441406 333.925781 317.875 331.664062 318.695312 C 327.148438 320.539062 321.808594 320.539062 317.289062 318.695312 C 315.03125 317.667969 312.976562 316.441406 311.335938 314.800781 C 308.046875 311.113281 305.996094 306.402344 305.996094 301.28125 Z M 324.476562 315.417969 C 326.324219 315.417969 327.96875 315.007812 329.613281 314.390625 C 331.253906 313.570312 332.488281 312.546875 333.71875 311.320312 C 334.949219 310.089844 335.773438 308.449219 336.59375 306.8125 C 338.03125 303.328125 338.03125 299.230469 336.59375 295.75 C 335.976562 294.109375 334.949219 292.675781 333.71875 291.242188 C 332.488281 290.011719 331.253906 288.988281 329.613281 288.167969 C 326.324219 286.734375 322.628906 286.734375 319.136719 288.167969 C 317.496094 288.78125 316.261719 289.808594 315.03125 291.242188 C 313.796875 292.46875 312.773438 294.109375 312.15625 295.75 C 311.539062 297.59375 311.128906 299.4375 311.128906 301.28125 C 311.128906 303.125 311.539062 304.96875 312.15625 306.8125 C 312.773438 308.449219 313.796875 310.089844 315.03125 311.320312 C 316.261719 312.546875 317.699219 313.570312 319.34375 314.390625 C 320.984375 315.007812 322.835938 315.417969 324.476562 315.417969 Z M 324.476562 315.417969 "/>
<path style=" stroke:none;fill-rule:nonzero;fill:rgb(100%,39.99939%,0%);fill-opacity:1;" d="M 355.691406 283.046875 L 355.691406 304.96875 C 355.488281 307.835938 356.515625 310.5 358.363281 312.546875 C 360.417969 314.390625 363.085938 315.417969 365.757812 315.417969 C 369.863281 315.417969 373.765625 313.367188 375.820312 309.679688 L 375.820312 283.046875 L 381.363281 283.046875 L 381.363281 319.308594 L 376.023438 319.308594 L 376.023438 315.210938 C 374.585938 316.851562 372.945312 318.078125 371.09375 318.898438 C 369.042969 319.71875 366.78125 320.128906 364.730469 320.128906 C 357.335938 320.539062 350.96875 314.800781 350.558594 307.425781 C 350.558594 307.015625 350.558594 306.605469 350.558594 306.195312 L 350.558594 283.046875 Z M 355.691406 283.046875 "/>
<path style=" stroke:none;fill-rule:nonzero;fill:rgb(100%,39.99939%,0%);fill-opacity:1;" d="M 418.738281 319.511719 L 418.738281 315.621094 C 417.300781 317.054688 415.453125 318.285156 413.402344 318.898438 C 406.625 321.359375 399.023438 319.71875 393.890625 314.597656 C 392.246094 312.957031 390.808594 310.910156 389.988281 308.65625 C 388.960938 306.402344 388.550781 303.738281 388.550781 301.28125 C 388.550781 298.820312 388.960938 296.363281 389.988281 293.902344 C 390.808594 291.652344 392.246094 289.601562 393.890625 287.964844 C 397.382812 284.480469 402.105469 282.429688 407.035156 282.636719 C 409.085938 282.636719 411.140625 283.046875 413.195312 283.660156 C 415.25 284.273438 417.097656 285.300781 418.738281 286.734375 L 418.738281 268.703125 L 424.078125 267.476562 L 424.078125 319.511719 Z M 394.097656 301.074219 C 394.097656 302.917969 394.507812 304.96875 395.121094 306.605469 C 395.738281 308.246094 396.765625 309.882812 398 311.113281 C 399.230469 312.34375 400.667969 313.367188 402.3125 314.1875 C 403.953125 315.007812 405.800781 315.210938 407.648438 315.210938 C 409.910156 315.210938 411.964844 314.800781 414.015625 313.777344 C 415.863281 312.957031 417.507812 311.726562 418.945312 310.089844 L 418.945312 292.058594 C 417.714844 290.421875 416.070312 289.191406 414.015625 288.371094 C 411.964844 287.554688 409.910156 286.9375 407.648438 286.9375 C 403.953125 286.9375 400.460938 288.371094 398 291.035156 C 395.328125 293.902344 393.890625 297.386719 394.097656 301.074219 Z M 394.097656 301.074219 "/>
<g clip-path="url(#clip3)" clip-rule="nonzero">
<path style=" stroke:none;fill-rule:nonzero;fill:rgb(96.859741%,58.81958%,27.449036%);fill-opacity:1;" d="M 739.109375 326.890625 C 738.699219 348.8125 720.832031 366.429688 698.859375 366.429688 L 645.050781 366.019531 C 632.113281 366.019531 637.660156 351.679688 637.660156 351.679688 L 652.238281 325.660156 C 655.9375 320.128906 659.222656 315.007812 661.6875 310.5 C 661.890625 310.089844 662.097656 309.476562 662.507812 309.066406 L 670.929688 319.921875 C 671.542969 320.949219 672.980469 321.152344 674.007812 320.539062 C 674.828125 320.128906 675.242188 319.308594 675.242188 318.488281 L 675.445312 314.390625 L 676.265625 293.699219 C 676.265625 293.085938 676.679688 292.46875 677.292969 292.058594 C 683.660156 287.964844 691.257812 285.914062 698.859375 285.914062 C 721.242188 286.324219 739.316406 304.558594 739.109375 326.890625 C 739.316406 326.890625 739.316406 326.890625 739.109375 326.890625 Z M 739.109375 326.890625 "/>
</g>
<g clip-path="url(#clip4)" clip-rule="nonzero">
<path style=" stroke:none;fill-rule:nonzero;fill:rgb(95.689392%,52.938843%,14.509583%);fill-opacity:1;" d="M 541.136719 366.019531 L 540.316406 366.226562 C 538.671875 366.429688 537.234375 366.429688 536.003906 366.429688 L 535.386719 366.429688 C 515.054688 366.226562 498.625 349.628906 498.625 329.347656 C 498.832031 312.34375 510.539062 297.59375 527.171875 293.699219 C 533.539062 325.863281 561.675781 349.21875 594.328125 349.835938 C 577.898438 358.644531 559.824219 364.175781 541.136719 366.019531 Z M 541.136719 366.019531 "/>
</g>
<g clip-path="url(#clip5)" clip-rule="nonzero">
<path style=" stroke:none;fill-rule:nonzero;fill:rgb(100%,39.99939%,0%);fill-opacity:1;" d="M 643 305.378906 L 654.292969 305.582031 C 643.820312 315.621094 632.523438 324.636719 620.613281 333.035156 C 616.09375 336.109375 611.578125 339.179688 607.265625 342.050781 C 602.953125 344.917969 598.640625 347.375 594.328125 349.628906 C 555.71875 348.8125 524.914062 316.851562 525.734375 278.332031 C 526.554688 239.816406 558.59375 209.085938 597.203125 209.90625 C 634.785156 210.726562 665.179688 241.046875 665.792969 278.539062 C 665.792969 279.359375 665.589844 279.972656 664.972656 280.585938 L 641.148438 300.460938 C 640.328125 301.074219 640.125 301.894531 640.125 302.917969 C 640.535156 304.351562 641.5625 305.378906 643 305.378906 Z M 643 305.378906 "/>
</g>
<path style=" stroke:none;fill-rule:nonzero;fill:rgb(100%,100%,100%);fill-opacity:1;" d="M 266.359375 336.722656 L 283.609375 358.234375 L 283.609375 336.722656 L 287.101562 336.722656 L 287.101562 364.996094 L 284.84375 364.996094 L 267.386719 343.484375 L 267.386719 364.996094 L 263.894531 364.996094 L 263.894531 336.722656 Z M 266.359375 336.722656 "/>
<path style=" stroke:none;fill-rule:nonzero;fill:rgb(100%,100%,100%);fill-opacity:1;" d="M 311.335938 361.71875 C 310.308594 362.945312 309.074219 363.765625 307.636719 364.382812 C 306.199219 364.996094 304.558594 365.199219 302.914062 365.199219 C 300.039062 365.40625 297.371094 364.382812 295.316406 362.332031 C 291.207031 358.234375 291.207031 351.472656 295.519531 347.375 C 299.832031 343.277344 306.40625 343.277344 310.511719 347.582031 C 312.566406 350.039062 313.386719 353.113281 312.773438 356.1875 L 295.933594 356.1875 C 296.136719 357.824219 296.957031 359.464844 298.191406 360.488281 C 299.628906 361.511719 301.269531 362.128906 303.121094 362.128906 C 304.351562 362.128906 305.582031 361.921875 306.609375 361.511719 C 307.636719 361.101562 308.664062 360.488281 309.28125 359.667969 Z M 309.484375 353.523438 C 309.484375 351.882812 308.871094 350.246094 307.433594 349.21875 C 305.996094 348.195312 304.351562 347.582031 302.707031 347.582031 C 301.066406 347.582031 299.421875 347.992188 297.984375 349.21875 C 296.546875 350.246094 295.726562 351.882812 295.519531 353.523438 Z M 309.484375 353.523438 "/>
<path style=" stroke:none;fill-rule:nonzero;fill:rgb(100%,100%,100%);fill-opacity:1;" d="M 322.628906 345.121094 L 328.789062 345.121094 L 328.789062 347.992188 L 322.628906 347.992188 L 322.628906 358.441406 C 322.628906 360.898438 323.65625 362.332031 325.710938 362.332031 C 326.738281 362.332031 327.558594 362.128906 328.585938 361.71875 L 329.613281 364.382812 C 328.378906 364.996094 327.148438 365.199219 325.710938 365.40625 C 321.398438 365.40625 319.34375 363.152344 319.34375 358.644531 L 319.34375 348.195312 L 315.234375 348.195312 L 315.234375 345.121094 L 319.34375 345.121094 L 319.34375 339.589844 L 322.628906 339.179688 Z M 322.628906 345.121094 "/>
<path style=" stroke:none;fill-rule:nonzero;fill:rgb(100%,100%,100%);fill-opacity:1;" d="M 334.949219 345.121094 L 340.289062 361.511719 L 345.628906 345.121094 L 348.300781 345.121094 L 353.640625 361.511719 L 358.980469 345.121094 L 362.675781 345.121094 L 355.691406 364.996094 L 351.996094 364.996094 L 349.328125 357.621094 L 347.273438 350.449219 L 345.015625 357.621094 L 342.34375 364.996094 L 338.648438 364.996094 L 331.460938 345.121094 Z M 334.949219 345.121094 "/>
<path style=" stroke:none;fill-rule:nonzero;fill:rgb(100%,100%,100%);fill-opacity:1;" d="M 367.808594 347.582031 C 369.863281 345.53125 372.53125 344.507812 375.203125 344.714844 C 380.746094 344.507812 385.265625 348.8125 385.675781 354.136719 C 385.675781 354.546875 385.675781 354.753906 385.675781 355.160156 C 385.675781 357.824219 384.648438 360.691406 382.800781 362.539062 C 380.746094 364.382812 378.078125 365.609375 375.40625 365.40625 C 372.738281 365.40625 370.070312 364.382812 368.015625 362.539062 C 365.960938 360.691406 364.933594 357.824219 365.140625 355.160156 C 364.933594 352.292969 365.960938 349.628906 367.808594 347.582031 Z M 380.335938 349.628906 C 377.460938 346.964844 372.945312 346.964844 370.273438 349.628906 C 368.835938 351.0625 368.21875 352.90625 368.21875 354.957031 C 368.21875 356.800781 368.835938 358.847656 370.273438 360.078125 C 373.148438 362.742188 377.460938 362.742188 380.335938 360.078125 C 381.773438 358.644531 382.390625 356.800781 382.390625 354.957031 C 382.597656 353.113281 381.773438 351.0625 380.335938 349.628906 Z M 380.335938 349.628906 "/>
<path style=" stroke:none;fill-rule:nonzero;fill:rgb(100%,100%,100%);fill-opacity:1;" d="M 393.683594 345.121094 L 393.890625 348.195312 C 395.125 345.941406 397.585938 344.714844 400.050781 344.917969 C 401.695312 344.917969 403.335938 345.328125 404.773438 346.351562 L 403.335938 349.21875 C 400.875 347.582031 397.792969 347.785156 395.738281 349.835938 C 394.507812 351.0625 393.890625 352.5 394.097656 354.136719 L 394.097656 365.199219 L 390.808594 365.199219 L 390.808594 345.121094 Z M 393.683594 345.121094 "/>
<path style=" stroke:none;fill-rule:nonzero;fill:rgb(100%,100%,100%);fill-opacity:1;" d="M 411.140625 353.523438 L 419.355469 345.121094 L 423.464844 345.121094 L 423.464844 345.328125 L 414.222656 354.546875 L 424.488281 364.789062 L 424.488281 364.996094 L 420.382812 364.996094 L 410.9375 355.570312 L 410.9375 364.996094 L 407.648438 364.996094 L 407.648438 336.722656 L 410.9375 336.722656 Z M 411.140625 353.523438 "/>
<path style="fill:none;stroke-width:1;stroke-linecap:round;stroke-linejoin:miter;stroke:rgb(100%,39.99939%,0%);stroke-opacity:1;stroke-miterlimit:4;" d="M 0.50038 -0.0000604354 L 53.685661 -0.0000604354 " transform="matrix(0.000000000000000229,-3.745676,3.744596,0.000000000000000229,786.980695,389.784419)"/>
<path style=" stroke:none;fill-rule:nonzero;fill:rgb(100%,39.99939%,0%);fill-opacity:1;" d="M 771.851562 465.898438 L 633.980469 435.546875 C 623.601562 433.257812 606.5625 433.257812 596.183594 435.546875 L 458.308594 465.898438 C 447.929688 468.191406 439.410156 478.785156 439.410156 489.449219 L 439.410156 530.65625 C 439.410156 541.535156 447.929688 552.347656 458.308594 554.707031 L 596.183594 585.777344 C 606.5625 588.136719 623.601562 588.136719 633.980469 585.777344 L 771.851562 554.707031 C 782.234375 552.347656 790.753906 541.535156 790.753906 530.65625 L 790.753906 489.449219 C 790.753906 478.785156 782.234375 468.191406 771.851562 465.898438 Z M 771.851562 465.898438 "/>
<g style="fill:rgb(100%,100%,100%);fill-opacity:1;">
  <use xlink:href="#glyph0-1" x="816.714588" y="284.351304"/>
</g>
<g style="fill:rgb(100%,100%,100%);fill-opacity:1;">
  <use xlink:href="#glyph0-2" x="859.225164" y="284.351304"/>
</g>
<g style="fill:rgb(100%,100%,100%);fill-opacity:1;">
  <use xlink:href="#glyph0-3" x="890.795304" y="284.351304"/>
</g>
<g style="fill:rgb(100%,100%,100%);fill-opacity:1;">
  <use xlink:href="#glyph0-4" x="905.692917" y="284.351304"/>
</g>
<g style="fill:rgb(100%,100%,100%);fill-opacity:1;">
  <use xlink:href="#glyph0-5" x="940.6383" y="284.351304"/>
</g>
<g style="fill:rgb(100%,100%,100%);fill-opacity:1;">
  <use xlink:href="#glyph0-6" x="969.560628" y="284.351304"/>
</g>
<g style="fill:rgb(100%,100%,100%);fill-opacity:1;">
  <use xlink:href="#glyph0-7" x="990.743166" y="284.351304"/>
</g>
<g style="fill:rgb(100%,100%,100%);fill-opacity:1;">
  <use xlink:href="#glyph0-8" x="1011.605641" y="284.351304"/>
</g>
<g style="fill:rgb(100%,100%,100%);fill-opacity:1;">
  <use xlink:href="#glyph0-9" x="1044.077777" y="284.351304"/>
</g>
<g style="fill:rgb(100%,100%,100%);fill-opacity:1;">
  <use xlink:href="#glyph0-6" x="1074.804112" y="284.351304"/>
</g>
<g style="fill:rgb(100%,100%,100%);fill-opacity:1;">
  <use xlink:href="#glyph0-10" x="843.619368" y="335.270671"/>
</g>
<g style="fill:rgb(100%,100%,100%);fill-opacity:1;">
  <use xlink:href="#glyph0-9" x="888.050339" y="335.270671"/>
</g>
<g style="fill:rgb(100%,100%,100%);fill-opacity:1;">
  <use xlink:href="#glyph0-7" x="918.776675" y="335.270671"/>
</g>
<g style="fill:rgb(100%,100%,100%);fill-opacity:1;">
  <use xlink:href="#glyph0-11" x="939.63915" y="335.270671"/>
</g>
<g style="fill:rgb(100%,100%,100%);fill-opacity:1;">
  <use xlink:href="#glyph0-12" x="985.35039" y="335.270671"/>
</g>
<g style="fill:rgb(100%,100%,100%);fill-opacity:1;">
  <use xlink:href="#glyph0-6" x="1018.346281" y="335.270671"/>
</g>
<g style="fill:rgb(100%,100%,100%);fill-opacity:1;">
  <use xlink:href="#glyph0-13" x="1039.52882" y="335.270671"/>
</g>
<g style="fill:rgb(100%,100%,100%);fill-opacity:1;">
  <use xlink:href="#glyph1-1" x="501.90061" y="496.773095"/>
</g>
<g style="fill:rgb(100%,100%,100%);fill-opacity:1;">
  <use xlink:href="#glyph1-2" x="528.068964" y="496.773095"/>
</g>
<g style="fill:rgb(100%,100%,100%);fill-opacity:1;">
  <use xlink:href="#glyph1-3" x="551.588374" y="496.773095"/>
</g>
<g style="fill:rgb(100%,100%,100%);fill-opacity:1;">
  <use xlink:href="#glyph1-4" x="572.940469" y="496.773095"/>
</g>
<g style="fill:rgb(100%,100%,100%);fill-opacity:1;">
  <use xlink:href="#glyph1-5" x="596.740828" y="496.773095"/>
</g>
<g style="fill:rgb(100%,100%,100%);fill-opacity:1;">
  <use xlink:href="#glyph1-6" x="620.541187" y="496.773095"/>
</g>
<g style="fill:rgb(100%,100%,100%);fill-opacity:1;">
  <use xlink:href="#glyph1-7" x="645.26466" y="496.773095"/>
</g>
<g style="fill:rgb(100%,100%,100%);fill-opacity:1;">
  <use xlink:href="#glyph1-6" x="655.057732" y="496.773095"/>
</g>
<g style="fill:rgb(100%,100%,100%);fill-opacity:1;">
  <use xlink:href="#glyph1-8" x="679.781205" y="496.773095"/>
</g>
<g style="fill:rgb(100%,100%,100%);fill-opacity:1;">
  <use xlink:href="#glyph1-9" x="704.986312" y="496.773095"/>
</g>
<g style="fill:rgb(100%,100%,100%);fill-opacity:1;">
  <use xlink:href="#glyph1-10" x="541.694147" y="552.913725"/>
</g>
<g style="fill:rgb(100%,100%,100%);fill-opacity:1;">
  <use xlink:href="#glyph1-11" x="569.026432" y="552.913725"/>
</g>
<g style="fill:rgb(100%,100%,100%);fill-opacity:1;">
  <use xlink:href="#glyph1-12" x="591.301641" y="552.913725"/>
</g>
<g style="fill:rgb(100%,100%,100%);fill-opacity:1;">
  <use xlink:href="#glyph1-13" x="607.636791" y="552.913725"/>
</g>
<g style="fill:rgb(100%,100%,100%);fill-opacity:1;">
  <use xlink:href="#glyph1-5" x="624.654247" y="552.913725"/>
</g>
<g style="fill:rgb(100%,100%,100%);fill-opacity:1;">
  <use xlink:href="#glyph1-2" x="648.454606" y="552.913725"/>
</g>
<g style="fill:rgb(100%,100%,100%);fill-opacity:1;">
  <use xlink:href="#glyph1-12" x="671.974009" y="552.913725"/>
</g>
</g>
</svg>
