<?xml version="1.0" encoding="UTF-8"?>
<svg xmlns="http://www.w3.org/2000/svg" xmlns:xlink="http://www.w3.org/1999/xlink" width="1230pt" height="693.000001pt" viewBox="0 0 1230 693.000001" version="1.2">
<defs>
<g>
<symbol overflow="visible" id="glyph0-0">
<path style="stroke:none;" d="M 7.265625 -33.203125 C 7.753906 -33.628906 8.273438 -34.023438 8.828125 -34.390625 C 9.378906 -34.753906 9.984375 -35.078125 10.640625 -35.359375 C 11.304688 -35.640625 12.019531 -35.863281 12.78125 -36.03125 C 13.550781 -36.195312 14.382812 -36.28125 15.28125 -36.28125 C 16.5 -36.28125 17.609375 -36.109375 18.609375 -35.765625 C 19.609375 -35.429688 20.460938 -34.953125 21.171875 -34.328125 C 21.878906 -33.710938 22.429688 -32.960938 22.828125 -32.078125 C 23.222656 -31.191406 23.421875 -30.207031 23.421875 -29.125 C 23.421875 -28.050781 23.273438 -27.125 22.984375 -26.34375 C 22.691406 -25.570312 22.328125 -24.898438 21.890625 -24.328125 C 21.453125 -23.765625 20.972656 -23.273438 20.453125 -22.859375 C 19.929688 -22.441406 19.4375 -22.046875 18.96875 -21.671875 C 18.5 -21.304688 18.09375 -20.941406 17.75 -20.578125 C 17.414062 -20.222656 17.210938 -19.820312 17.140625 -19.375 L 16.640625 -16.328125 L 13.09375 -16.328125 L 12.75 -19.71875 C 12.664062 -20.382812 12.75 -20.960938 13 -21.453125 C 13.257812 -21.953125 13.601562 -22.410156 14.03125 -22.828125 C 14.46875 -23.242188 14.953125 -23.644531 15.484375 -24.03125 C 16.023438 -24.414062 16.523438 -24.832031 16.984375 -25.28125 C 17.453125 -25.726562 17.84375 -26.234375 18.15625 -26.796875 C 18.46875 -27.359375 18.625 -28.023438 18.625 -28.796875 C 18.625 -29.785156 18.269531 -30.570312 17.5625 -31.15625 C 16.851562 -31.738281 15.945312 -32.03125 14.84375 -32.03125 C 14.039062 -32.03125 13.367188 -31.941406 12.828125 -31.765625 C 12.285156 -31.597656 11.820312 -31.40625 11.4375 -31.1875 C 11.050781 -30.976562 10.71875 -30.785156 10.4375 -30.609375 C 10.164062 -30.429688 9.925781 -30.34375 9.71875 -30.34375 C 9.226562 -30.34375 8.867188 -30.554688 8.640625 -30.984375 Z M 11.515625 -8.5 C 11.515625 -9.40625 11.816406 -10.164062 12.421875 -10.78125 C 13.023438 -11.40625 13.789062 -11.71875 14.71875 -11.71875 C 15.144531 -11.71875 15.550781 -11.632812 15.9375 -11.46875 C 16.332031 -11.3125 16.671875 -11.085938 16.953125 -10.796875 C 17.234375 -10.503906 17.453125 -10.160156 17.609375 -9.765625 C 17.773438 -9.367188 17.859375 -8.945312 17.859375 -8.5 C 17.859375 -8.050781 17.773438 -7.628906 17.609375 -7.234375 C 17.453125 -6.847656 17.234375 -6.507812 16.953125 -6.21875 C 16.671875 -5.9375 16.332031 -5.710938 15.9375 -5.546875 C 15.550781 -5.378906 15.144531 -5.296875 14.71875 -5.296875 C 13.789062 -5.296875 13.023438 -5.597656 12.421875 -6.203125 C 11.816406 -6.816406 11.515625 -7.582031 11.515625 -8.5 Z M 1.3125 -41.6875 L 29.640625 -41.6875 L 29.640625 0 L 1.3125 0 Z M 2.765625 -1.578125 L 27.984375 -1.578125 L 27.984375 -40.09375 L 2.765625 -40.09375 Z M 2.765625 -1.578125 "/>
</symbol>
<symbol overflow="visible" id="glyph0-1">
<path style="stroke:none;" d="M 39.1875 -20.046875 L 39.1875 -4.046875 C 37.09375 -2.535156 34.859375 -1.40625 32.484375 -0.65625 C 30.109375 0.09375 27.503906 0.46875 24.671875 0.46875 C 21.316406 0.46875 18.289062 -0.046875 15.59375 -1.078125 C 12.894531 -2.117188 10.585938 -3.578125 8.671875 -5.453125 C 6.765625 -7.328125 5.296875 -9.570312 4.265625 -12.1875 C 3.242188 -14.8125 2.734375 -17.691406 2.734375 -20.828125 C 2.734375 -24.015625 3.234375 -26.914062 4.234375 -29.53125 C 5.234375 -32.144531 6.65625 -34.390625 8.5 -36.265625 C 10.34375 -38.140625 12.582031 -39.585938 15.21875 -40.609375 C 17.851562 -41.640625 20.800781 -42.15625 24.0625 -42.15625 C 25.707031 -42.15625 27.238281 -42.03125 28.65625 -41.78125 C 30.070312 -41.539062 31.378906 -41.191406 32.578125 -40.734375 C 33.785156 -40.285156 34.898438 -39.734375 35.921875 -39.078125 C 36.953125 -38.429688 37.914062 -37.703125 38.8125 -36.890625 L 37.203125 -34.328125 C 36.953125 -33.941406 36.628906 -33.691406 36.234375 -33.578125 C 35.835938 -33.472656 35.394531 -33.566406 34.90625 -33.859375 C 34.445312 -34.128906 33.914062 -34.457031 33.3125 -34.84375 C 32.707031 -35.238281 31.972656 -35.613281 31.109375 -35.96875 C 30.253906 -36.332031 29.238281 -36.640625 28.0625 -36.890625 C 26.882812 -37.140625 25.492188 -37.265625 23.890625 -37.265625 C 21.535156 -37.265625 19.40625 -36.878906 17.5 -36.109375 C 15.601562 -35.347656 13.984375 -34.253906 12.640625 -32.828125 C 11.304688 -31.398438 10.28125 -29.671875 9.5625 -27.640625 C 8.851562 -25.617188 8.5 -23.347656 8.5 -20.828125 C 8.5 -18.210938 8.867188 -15.867188 9.609375 -13.796875 C 10.359375 -11.734375 11.425781 -9.976562 12.8125 -8.53125 C 14.195312 -7.09375 15.878906 -5.992188 17.859375 -5.234375 C 19.835938 -4.484375 22.0625 -4.109375 24.53125 -4.109375 C 26.46875 -4.109375 28.1875 -4.320312 29.6875 -4.75 C 31.1875 -5.1875 32.65625 -5.796875 34.09375 -6.578125 L 34.09375 -15.734375 L 27.609375 -15.734375 C 27.242188 -15.734375 26.945312 -15.835938 26.71875 -16.046875 C 26.5 -16.265625 26.390625 -16.53125 26.390625 -16.84375 L 26.390625 -20.046875 Z M 39.1875 -20.046875 "/>
</symbol>
<symbol overflow="visible" id="glyph0-2">
<path style="stroke:none;" d="M 26.65625 -35.171875 C 26.476562 -34.878906 26.285156 -34.660156 26.078125 -34.515625 C 25.878906 -34.367188 25.632812 -34.296875 25.34375 -34.296875 C 25.007812 -34.296875 24.617188 -34.460938 24.171875 -34.796875 C 23.722656 -35.128906 23.164062 -35.492188 22.5 -35.890625 C 21.832031 -36.285156 21.023438 -36.644531 20.078125 -36.96875 C 19.140625 -37.300781 18.003906 -37.46875 16.671875 -37.46875 C 15.410156 -37.46875 14.300781 -37.296875 13.34375 -36.953125 C 12.382812 -36.617188 11.578125 -36.160156 10.921875 -35.578125 C 10.273438 -34.992188 9.785156 -34.3125 9.453125 -33.53125 C 9.117188 -32.75 8.953125 -31.898438 8.953125 -30.984375 C 8.953125 -29.816406 9.238281 -28.847656 9.8125 -28.078125 C 10.382812 -27.316406 11.140625 -26.664062 12.078125 -26.125 C 13.023438 -25.582031 14.09375 -25.113281 15.28125 -24.71875 C 16.476562 -24.320312 17.703125 -23.910156 18.953125 -23.484375 C 20.203125 -23.054688 21.421875 -22.570312 22.609375 -22.03125 C 23.804688 -21.5 24.875 -20.828125 25.8125 -20.015625 C 26.757812 -19.203125 27.519531 -18.203125 28.09375 -17.015625 C 28.664062 -15.835938 28.953125 -14.382812 28.953125 -12.65625 C 28.953125 -10.832031 28.640625 -9.117188 28.015625 -7.515625 C 27.398438 -5.921875 26.492188 -4.53125 25.296875 -3.34375 C 24.097656 -2.164062 22.628906 -1.234375 20.890625 -0.546875 C 19.160156 0.128906 17.191406 0.46875 14.984375 0.46875 C 12.265625 0.46875 9.800781 -0.0195312 7.59375 -1 C 5.382812 -1.976562 3.492188 -3.300781 1.921875 -4.96875 L 3.546875 -7.65625 C 3.703125 -7.863281 3.890625 -8.039062 4.109375 -8.1875 C 4.335938 -8.332031 4.585938 -8.40625 4.859375 -8.40625 C 5.109375 -8.40625 5.394531 -8.300781 5.71875 -8.09375 C 6.039062 -7.894531 6.40625 -7.640625 6.8125 -7.328125 C 7.21875 -7.015625 7.679688 -6.675781 8.203125 -6.3125 C 8.722656 -5.945312 9.316406 -5.609375 9.984375 -5.296875 C 10.660156 -4.984375 11.425781 -4.722656 12.28125 -4.515625 C 13.132812 -4.316406 14.09375 -4.21875 15.15625 -4.21875 C 16.5 -4.21875 17.691406 -4.398438 18.734375 -4.765625 C 19.785156 -5.140625 20.671875 -5.660156 21.390625 -6.328125 C 22.117188 -6.992188 22.675781 -7.789062 23.0625 -8.71875 C 23.457031 -9.65625 23.65625 -10.695312 23.65625 -11.84375 C 23.65625 -13.101562 23.367188 -14.132812 22.796875 -14.9375 C 22.222656 -15.738281 21.46875 -16.410156 20.53125 -16.953125 C 19.601562 -17.503906 18.535156 -17.96875 17.328125 -18.34375 C 16.128906 -18.71875 14.910156 -19.101562 13.671875 -19.5 C 12.429688 -19.90625 11.207031 -20.367188 10 -20.890625 C 8.800781 -21.410156 7.734375 -22.085938 6.796875 -22.921875 C 5.867188 -23.753906 5.117188 -24.796875 4.546875 -26.046875 C 3.972656 -27.304688 3.6875 -28.851562 3.6875 -30.6875 C 3.6875 -32.164062 3.972656 -33.59375 4.546875 -34.96875 C 5.117188 -36.34375 5.953125 -37.5625 7.046875 -38.625 C 8.148438 -39.695312 9.5 -40.550781 11.09375 -41.1875 C 12.695312 -41.832031 14.535156 -42.15625 16.609375 -42.15625 C 18.941406 -42.15625 21.0625 -41.785156 22.96875 -41.046875 C 24.875 -40.316406 26.554688 -39.25 28.015625 -37.84375 Z M 26.65625 -35.171875 "/>
</symbol>
<symbol overflow="visible" id="glyph0-3">
<path style="stroke:none;" d=""/>
</symbol>
<symbol overflow="visible" id="glyph0-4">
<path style="stroke:none;" d="M 17.625 -20.078125 C 19.238281 -20.078125 20.660156 -20.289062 21.890625 -20.71875 C 23.117188 -21.144531 24.15625 -21.738281 25 -22.5 C 25.84375 -23.269531 26.476562 -24.1875 26.90625 -25.25 C 27.332031 -26.320312 27.546875 -27.5 27.546875 -28.78125 C 27.546875 -31.4375 26.726562 -33.507812 25.09375 -35 C 23.457031 -36.488281 20.96875 -37.234375 17.625 -37.234375 L 10.9375 -37.234375 L 10.9375 -20.078125 Z M 17.625 -41.6875 C 20.269531 -41.6875 22.566406 -41.378906 24.515625 -40.765625 C 26.460938 -40.160156 28.078125 -39.296875 29.359375 -38.171875 C 30.640625 -37.046875 31.59375 -35.6875 32.21875 -34.09375 C 32.851562 -32.507812 33.171875 -30.738281 33.171875 -28.78125 C 33.171875 -26.832031 32.828125 -25.050781 32.140625 -23.4375 C 31.460938 -21.832031 30.46875 -20.445312 29.15625 -19.28125 C 27.851562 -18.125 26.234375 -17.21875 24.296875 -16.5625 C 22.367188 -15.914062 20.144531 -15.59375 17.625 -15.59375 L 10.9375 -15.59375 L 10.9375 0 L 5.328125 0 L 5.328125 -41.6875 Z M 17.625 -41.6875 "/>
</symbol>
<symbol overflow="visible" id="glyph0-5">
<path style="stroke:none;" d="M 20.078125 -13.265625 C 17.691406 -13.191406 15.660156 -13.003906 13.984375 -12.703125 C 12.304688 -12.398438 10.9375 -12.003906 9.875 -11.515625 C 8.820312 -11.035156 8.054688 -10.460938 7.578125 -9.796875 C 7.097656 -9.140625 6.859375 -8.40625 6.859375 -7.59375 C 6.859375 -6.820312 6.984375 -6.15625 7.234375 -5.59375 C 7.492188 -5.03125 7.84375 -4.566406 8.28125 -4.203125 C 8.71875 -3.847656 9.226562 -3.585938 9.8125 -3.421875 C 10.40625 -3.253906 11.039062 -3.171875 11.71875 -3.171875 C 12.632812 -3.171875 13.46875 -3.257812 14.21875 -3.4375 C 14.976562 -3.625 15.691406 -3.890625 16.359375 -4.234375 C 17.035156 -4.585938 17.675781 -5.003906 18.28125 -5.484375 C 18.894531 -5.972656 19.492188 -6.53125 20.078125 -7.15625 Z M 3.34375 -25.3125 C 4.976562 -26.882812 6.734375 -28.054688 8.609375 -28.828125 C 10.492188 -29.609375 12.578125 -30 14.859375 -30 C 16.515625 -30 17.984375 -29.722656 19.265625 -29.171875 C 20.546875 -28.628906 21.617188 -27.875 22.484375 -26.90625 C 23.359375 -25.9375 24.019531 -24.765625 24.46875 -23.390625 C 24.914062 -22.015625 25.140625 -20.503906 25.140625 -18.859375 L 25.140625 0 L 22.84375 0 C 22.332031 0 21.941406 -0.0820312 21.671875 -0.25 C 21.398438 -0.414062 21.1875 -0.738281 21.03125 -1.21875 L 20.453125 -4.015625 C 19.679688 -3.296875 18.925781 -2.660156 18.1875 -2.109375 C 17.445312 -1.554688 16.671875 -1.085938 15.859375 -0.703125 C 15.046875 -0.328125 14.175781 -0.0390625 13.25 0.15625 C 12.332031 0.363281 11.3125 0.46875 10.1875 0.46875 C 9.039062 0.46875 7.960938 0.304688 6.953125 -0.015625 C 5.941406 -0.335938 5.0625 -0.816406 4.3125 -1.453125 C 3.570312 -2.097656 2.984375 -2.910156 2.546875 -3.890625 C 2.109375 -4.867188 1.890625 -6.023438 1.890625 -7.359375 C 1.890625 -8.523438 2.207031 -9.644531 2.84375 -10.71875 C 3.488281 -11.789062 4.523438 -12.742188 5.953125 -13.578125 C 7.390625 -14.421875 9.265625 -15.109375 11.578125 -15.640625 C 13.890625 -16.171875 16.722656 -16.472656 20.078125 -16.546875 L 20.078125 -18.859375 C 20.078125 -21.140625 19.582031 -22.867188 18.59375 -24.046875 C 17.601562 -25.222656 16.15625 -25.8125 14.25 -25.8125 C 12.96875 -25.8125 11.894531 -25.648438 11.03125 -25.328125 C 10.175781 -25.003906 9.429688 -24.644531 8.796875 -24.25 C 8.171875 -23.851562 7.628906 -23.492188 7.171875 -23.171875 C 6.710938 -22.847656 6.257812 -22.6875 5.8125 -22.6875 C 5.46875 -22.6875 5.164062 -22.78125 4.90625 -22.96875 C 4.65625 -23.15625 4.445312 -23.382812 4.28125 -23.65625 Z M 3.34375 -25.3125 "/>
</symbol>
<symbol overflow="visible" id="glyph0-6">
<path style="stroke:none;" d="M 9.015625 -23.5625 C 9.953125 -25.582031 11.097656 -27.160156 12.453125 -28.296875 C 13.804688 -29.429688 15.460938 -30 17.421875 -30 C 18.046875 -30 18.644531 -29.929688 19.21875 -29.796875 C 19.789062 -29.660156 20.300781 -29.445312 20.75 -29.15625 L 20.359375 -25.28125 C 20.242188 -24.800781 19.957031 -24.5625 19.5 -24.5625 C 19.21875 -24.5625 18.816406 -24.617188 18.296875 -24.734375 C 17.773438 -24.847656 17.1875 -24.90625 16.53125 -24.90625 C 15.59375 -24.90625 14.757812 -24.769531 14.03125 -24.5 C 13.3125 -24.226562 12.664062 -23.820312 12.09375 -23.28125 C 11.519531 -22.75 11.003906 -22.09375 10.546875 -21.3125 C 10.085938 -20.53125 9.675781 -19.632812 9.3125 -18.625 L 9.3125 0 L 4.109375 0 L 4.109375 -29.46875 L 7.0625 -29.46875 C 7.625 -29.46875 8.007812 -29.359375 8.21875 -29.140625 C 8.4375 -28.929688 8.585938 -28.566406 8.671875 -28.046875 Z M 9.015625 -23.5625 "/>
</symbol>
<symbol overflow="visible" id="glyph0-7">
<path style="stroke:none;" d="M 13.15625 0.46875 C 10.820312 0.46875 9.03125 -0.179688 7.78125 -1.484375 C 6.53125 -2.785156 5.90625 -4.65625 5.90625 -7.09375 L 5.90625 -25.140625 L 2.359375 -25.140625 C 2.046875 -25.140625 1.78125 -25.226562 1.5625 -25.40625 C 1.351562 -25.59375 1.25 -25.878906 1.25 -26.265625 L 1.25 -28.34375 L 6.078125 -28.953125 L 7.265625 -38.046875 C 7.328125 -38.335938 7.457031 -38.578125 7.65625 -38.765625 C 7.863281 -38.953125 8.132812 -39.046875 8.46875 -39.046875 L 11.078125 -39.046875 L 11.078125 -28.890625 L 19.609375 -28.890625 L 19.609375 -25.140625 L 11.078125 -25.140625 L 11.078125 -7.453125 C 11.078125 -6.210938 11.378906 -5.289062 11.984375 -4.6875 C 12.585938 -4.082031 13.363281 -3.78125 14.3125 -3.78125 C 14.851562 -3.78125 15.320312 -3.851562 15.71875 -4 C 16.125 -4.144531 16.46875 -4.304688 16.75 -4.484375 C 17.039062 -4.660156 17.289062 -4.816406 17.5 -4.953125 C 17.707031 -5.097656 17.882812 -5.171875 18.03125 -5.171875 C 18.3125 -5.171875 18.554688 -5.007812 18.765625 -4.6875 L 20.28125 -2.21875 C 19.382812 -1.375 18.304688 -0.710938 17.046875 -0.234375 C 15.785156 0.234375 14.488281 0.46875 13.15625 0.46875 Z M 13.15625 0.46875 "/>
</symbol>
<symbol overflow="visible" id="glyph0-8">
<path style="stroke:none;" d="M 8.984375 -25.1875 C 9.628906 -25.90625 10.3125 -26.554688 11.03125 -27.140625 C 11.75 -27.722656 12.507812 -28.222656 13.3125 -28.640625 C 14.113281 -29.054688 14.960938 -29.375 15.859375 -29.59375 C 16.765625 -29.820312 17.742188 -29.9375 18.796875 -29.9375 C 20.398438 -29.9375 21.816406 -29.671875 23.046875 -29.140625 C 24.285156 -28.609375 25.316406 -27.851562 26.140625 -26.875 C 26.960938 -25.894531 27.585938 -24.710938 28.015625 -23.328125 C 28.441406 -21.953125 28.65625 -20.429688 28.65625 -18.765625 L 28.65625 0 L 23.453125 0 L 23.453125 -18.765625 C 23.453125 -20.992188 22.941406 -22.722656 21.921875 -23.953125 C 20.898438 -25.191406 19.351562 -25.8125 17.28125 -25.8125 C 15.75 -25.8125 14.316406 -25.441406 12.984375 -24.703125 C 11.660156 -23.960938 10.4375 -22.960938 9.3125 -21.703125 L 9.3125 0 L 4.109375 0 L 4.109375 -29.46875 L 7.21875 -29.46875 C 7.957031 -29.46875 8.410156 -29.109375 8.578125 -28.390625 Z M 8.984375 -25.1875 "/>
</symbol>
<symbol overflow="visible" id="glyph0-9">
<path style="stroke:none;" d="M 23.828125 -17.953125 C 23.828125 -19.148438 23.65625 -20.25 23.3125 -21.25 C 22.976562 -22.25 22.484375 -23.113281 21.828125 -23.84375 C 21.179688 -24.570312 20.390625 -25.132812 19.453125 -25.53125 C 18.523438 -25.925781 17.472656 -26.125 16.296875 -26.125 C 13.804688 -26.125 11.835938 -25.398438 10.390625 -23.953125 C 8.953125 -22.515625 8.054688 -20.515625 7.703125 -17.953125 Z M 28.015625 -4.125 C 27.378906 -3.351562 26.613281 -2.679688 25.71875 -2.109375 C 24.820312 -1.535156 23.863281 -1.0625 22.84375 -0.6875 C 21.832031 -0.320312 20.78125 -0.0507812 19.6875 0.125 C 18.601562 0.3125 17.53125 0.40625 16.46875 0.40625 C 14.425781 0.40625 12.546875 0.0625 10.828125 -0.625 C 9.117188 -1.3125 7.640625 -2.316406 6.390625 -3.640625 C 5.140625 -4.972656 4.164062 -6.617188 3.46875 -8.578125 C 2.769531 -10.535156 2.421875 -12.785156 2.421875 -15.328125 C 2.421875 -17.390625 2.734375 -19.3125 3.359375 -21.09375 C 3.992188 -22.875 4.898438 -24.421875 6.078125 -25.734375 C 7.265625 -27.046875 8.707031 -28.070312 10.40625 -28.8125 C 12.113281 -29.5625 14.035156 -29.9375 16.171875 -29.9375 C 17.941406 -29.9375 19.578125 -29.640625 21.078125 -29.046875 C 22.578125 -28.453125 23.875 -27.597656 24.96875 -26.484375 C 26.070312 -25.367188 26.929688 -23.992188 27.546875 -22.359375 C 28.171875 -20.722656 28.484375 -18.859375 28.484375 -16.765625 C 28.484375 -15.941406 28.394531 -15.394531 28.21875 -15.125 C 28.039062 -14.851562 27.710938 -14.71875 27.234375 -14.71875 L 7.53125 -14.71875 C 7.59375 -12.851562 7.847656 -11.234375 8.296875 -9.859375 C 8.753906 -8.484375 9.390625 -7.332031 10.203125 -6.40625 C 11.023438 -5.488281 12 -4.800781 13.125 -4.34375 C 14.25 -3.894531 15.507812 -3.671875 16.90625 -3.671875 C 18.207031 -3.671875 19.328125 -3.816406 20.265625 -4.109375 C 21.203125 -4.410156 22.007812 -4.734375 22.6875 -5.078125 C 23.375 -5.429688 23.941406 -5.757812 24.390625 -6.0625 C 24.847656 -6.363281 25.242188 -6.515625 25.578125 -6.515625 C 26.003906 -6.515625 26.332031 -6.347656 26.5625 -6.015625 Z M 28.015625 -4.125 "/>
</symbol>
<symbol overflow="visible" id="glyph0-10">
<path style="stroke:none;" d="M 39.109375 -41.6875 L 39.109375 0 L 36.28125 0 C 35.832031 0 35.457031 -0.078125 35.15625 -0.234375 C 34.851562 -0.390625 34.554688 -0.648438 34.265625 -1.015625 L 10.15625 -32.4375 C 10.195312 -31.957031 10.222656 -31.484375 10.234375 -31.015625 C 10.253906 -30.546875 10.265625 -30.109375 10.265625 -29.703125 L 10.265625 0 L 5.328125 0 L 5.328125 -41.6875 L 8.234375 -41.6875 C 8.484375 -41.6875 8.695312 -41.671875 8.875 -41.640625 C 9.050781 -41.617188 9.207031 -41.570312 9.34375 -41.5 C 9.476562 -41.4375 9.613281 -41.335938 9.75 -41.203125 C 9.882812 -41.078125 10.03125 -40.921875 10.1875 -40.734375 L 34.296875 -9.34375 C 34.265625 -9.84375 34.234375 -10.328125 34.203125 -10.796875 C 34.171875 -11.273438 34.15625 -11.726562 34.15625 -12.15625 L 34.15625 -41.6875 Z M 39.109375 -41.6875 "/>
</symbol>
<symbol overflow="visible" id="glyph0-11">
<path style="stroke:none;" d="M 44.75 -29.46875 L 35.203125 0 L 31.09375 0 C 30.59375 0 30.242188 -0.328125 30.046875 -0.984375 L 23.53125 -20.984375 C 23.375 -21.421875 23.25 -21.867188 23.15625 -22.328125 C 23.0625 -22.785156 22.96875 -23.238281 22.875 -23.6875 C 22.769531 -23.238281 22.671875 -22.785156 22.578125 -22.328125 C 22.484375 -21.867188 22.359375 -21.410156 22.203125 -20.953125 L 15.5625 -0.984375 C 15.382812 -0.328125 15 0 14.40625 0 L 10.5 0 L 0.953125 -29.46875 L 5.03125 -29.46875 C 5.4375 -29.46875 5.78125 -29.359375 6.0625 -29.140625 C 6.34375 -28.929688 6.535156 -28.679688 6.640625 -28.390625 L 12.28125 -9.421875 C 12.601562 -8.023438 12.863281 -6.707031 13.0625 -5.46875 C 13.238281 -6.113281 13.414062 -6.765625 13.59375 -7.421875 C 13.78125 -8.078125 13.984375 -8.742188 14.203125 -9.421875 L 20.421875 -28.515625 C 20.515625 -28.804688 20.679688 -29.046875 20.921875 -29.234375 C 21.171875 -29.429688 21.46875 -29.53125 21.8125 -29.53125 L 24.09375 -29.53125 C 24.476562 -29.53125 24.796875 -29.429688 25.046875 -29.234375 C 25.296875 -29.046875 25.472656 -28.804688 25.578125 -28.515625 L 31.65625 -9.421875 C 31.863281 -8.742188 32.054688 -8.078125 32.234375 -7.421875 C 32.410156 -6.765625 32.578125 -6.113281 32.734375 -5.46875 C 32.828125 -6.113281 32.945312 -6.757812 33.09375 -7.40625 C 33.238281 -8.050781 33.398438 -8.722656 33.578125 -9.421875 L 39.328125 -28.390625 C 39.429688 -28.703125 39.617188 -28.957031 39.890625 -29.15625 C 40.160156 -29.363281 40.476562 -29.46875 40.84375 -29.46875 Z M 44.75 -29.46875 "/>
</symbol>
<symbol overflow="visible" id="glyph0-12">
<path style="stroke:none;" d="M 16.53125 -29.9375 C 18.675781 -29.9375 20.613281 -29.578125 22.34375 -28.859375 C 24.070312 -28.140625 25.546875 -27.117188 26.765625 -25.796875 C 27.984375 -24.484375 28.914062 -22.890625 29.5625 -21.015625 C 30.21875 -19.148438 30.546875 -17.0625 30.546875 -14.75 C 30.546875 -12.425781 30.21875 -10.332031 29.5625 -8.46875 C 28.914062 -6.601562 27.984375 -5.007812 26.765625 -3.6875 C 25.546875 -2.375 24.070312 -1.363281 22.34375 -0.65625 C 20.613281 0.0507812 18.675781 0.40625 16.53125 0.40625 C 14.351562 0.40625 12.394531 0.0507812 10.65625 -0.65625 C 8.925781 -1.363281 7.445312 -2.375 6.21875 -3.6875 C 5 -5.007812 4.0625 -6.601562 3.40625 -8.46875 C 2.757812 -10.332031 2.4375 -12.425781 2.4375 -14.75 C 2.4375 -17.0625 2.757812 -19.148438 3.40625 -21.015625 C 4.0625 -22.890625 5 -24.484375 6.21875 -25.796875 C 7.445312 -27.117188 8.925781 -28.140625 10.65625 -28.859375 C 12.394531 -29.578125 14.351562 -29.9375 16.53125 -29.9375 Z M 16.53125 -3.640625 C 19.4375 -3.640625 21.601562 -4.613281 23.03125 -6.5625 C 24.46875 -8.507812 25.1875 -11.226562 25.1875 -14.71875 C 25.1875 -18.226562 24.46875 -20.960938 23.03125 -22.921875 C 21.601562 -24.878906 19.4375 -25.859375 16.53125 -25.859375 C 15.050781 -25.859375 13.765625 -25.601562 12.671875 -25.09375 C 11.578125 -24.59375 10.664062 -23.867188 9.9375 -22.921875 C 9.207031 -21.972656 8.660156 -20.804688 8.296875 -19.421875 C 7.941406 -18.035156 7.765625 -16.46875 7.765625 -14.71875 C 7.765625 -11.226562 8.488281 -8.507812 9.9375 -6.5625 C 11.382812 -4.613281 13.582031 -3.640625 16.53125 -3.640625 Z M 16.53125 -3.640625 "/>
</symbol>
<symbol overflow="visible" id="glyph0-13">
<path style="stroke:none;" d="M 9.3125 -42.859375 L 9.3125 -17.625 L 10.640625 -17.625 C 11.035156 -17.625 11.363281 -17.675781 11.625 -17.78125 C 11.882812 -17.894531 12.160156 -18.117188 12.453125 -18.453125 L 21.765625 -28.421875 C 22.035156 -28.753906 22.320312 -29.007812 22.625 -29.1875 C 22.925781 -29.375 23.328125 -29.46875 23.828125 -29.46875 L 28.515625 -29.46875 L 17.65625 -17.921875 C 17.132812 -17.265625 16.570312 -16.75 15.96875 -16.375 C 16.320312 -16.144531 16.640625 -15.878906 16.921875 -15.578125 C 17.203125 -15.273438 17.46875 -14.929688 17.71875 -14.546875 L 29.234375 0 L 24.609375 0 C 24.160156 0 23.773438 -0.0703125 23.453125 -0.21875 C 23.140625 -0.363281 22.867188 -0.628906 22.640625 -1.015625 L 12.953125 -13.09375 C 12.660156 -13.5 12.375 -13.765625 12.09375 -13.890625 C 11.8125 -14.015625 11.378906 -14.078125 10.796875 -14.078125 L 9.3125 -14.078125 L 9.3125 0 L 4.109375 0 L 4.109375 -42.859375 Z M 9.3125 -42.859375 "/>
</symbol>
<symbol overflow="visible" id="glyph1-0">
<path style="stroke:none;" d="M 2.40625 4.015625 L 2.40625 -30.109375 L 18.21875 -30.109375 L 18.21875 4.015625 Z M 2.40625 4.015625 "/>
</symbol>
<symbol overflow="visible" id="glyph1-1">
<path style="stroke:none;" d="M 0.6875 -25.328125 L 0.6875 -28.09375 L 24.078125 -28.09375 L 24.078125 -25.328125 L 13.921875 -25.328125 L 13.921875 0 L 10.84375 0 L 10.84375 -25.328125 Z M 0.6875 -25.328125 "/>
</symbol>
<symbol overflow="visible" id="glyph1-2">
<path style="stroke:none;" d="M 19.46875 -2.125 C 18.34375 -1.300781 17.171875 -0.679688 15.953125 -0.265625 C 14.734375 0.148438 13.40625 0.359375 11.96875 0.359375 C 10.519531 0.359375 9.160156 0.09375 7.890625 -0.4375 C 6.617188 -0.976562 5.519531 -1.710938 4.59375 -2.640625 C 3.675781 -3.578125 2.945312 -4.679688 2.40625 -5.953125 C 1.875 -7.234375 1.609375 -8.609375 1.609375 -10.078125 C 1.609375 -11.523438 1.867188 -12.875 2.390625 -14.125 C 2.910156 -15.382812 3.613281 -16.484375 4.5 -17.421875 C 5.382812 -18.359375 6.429688 -19.09375 7.640625 -19.625 C 8.859375 -20.164062 10.148438 -20.4375 11.515625 -20.4375 C 12.859375 -20.4375 14.109375 -20.164062 15.265625 -19.625 C 16.429688 -19.09375 17.4375 -18.359375 18.28125 -17.421875 C 19.125 -16.484375 19.789062 -15.382812 20.28125 -14.125 C 20.78125 -12.875 21.03125 -11.523438 21.03125 -10.078125 L 21.03125 -9.15625 L 4.53125 -9.15625 C 4.75 -7.175781 5.566406 -5.53125 6.984375 -4.21875 C 8.398438 -2.90625 10.097656 -2.25 12.078125 -2.25 C 13.117188 -2.25 14.132812 -2.410156 15.125 -2.734375 C 16.125 -3.054688 16.957031 -3.507812 17.625 -4.09375 Z M 11.4375 -17.828125 C 9.695312 -17.828125 8.191406 -17.238281 6.921875 -16.0625 C 5.648438 -14.882812 4.878906 -13.367188 4.609375 -11.515625 L 18.0625 -11.515625 C 17.789062 -13.285156 17.03125 -14.78125 15.78125 -16 C 14.539062 -17.21875 13.09375 -17.828125 11.4375 -17.828125 Z M 11.4375 -17.828125 "/>
</symbol>
<symbol overflow="visible" id="glyph1-3">
<path style="stroke:none;" d="M 11.921875 -2.328125 C 12.992188 -2.328125 14.023438 -2.539062 15.015625 -2.96875 C 16.003906 -3.394531 16.925781 -4.023438 17.78125 -4.859375 L 19.625 -2.84375 C 18.550781 -1.832031 17.347656 -1.046875 16.015625 -0.484375 C 14.679688 0.078125 13.289062 0.359375 11.84375 0.359375 C 10.425781 0.359375 9.085938 0.09375 7.828125 -0.4375 C 6.566406 -0.976562 5.484375 -1.710938 4.578125 -2.640625 C 3.671875 -3.578125 2.945312 -4.6875 2.40625 -5.96875 C 1.875 -7.257812 1.609375 -8.628906 1.609375 -10.078125 C 1.609375 -11.523438 1.875 -12.882812 2.40625 -14.15625 C 2.945312 -15.425781 3.671875 -16.523438 4.578125 -17.453125 C 5.484375 -18.390625 6.566406 -19.132812 7.828125 -19.6875 C 9.085938 -20.238281 10.425781 -20.515625 11.84375 -20.515625 C 13.289062 -20.515625 14.703125 -20.234375 16.078125 -19.671875 C 17.453125 -19.109375 18.660156 -18.332031 19.703125 -17.34375 L 17.828125 -15.171875 C 17.023438 -16.003906 16.097656 -16.644531 15.046875 -17.09375 C 14.003906 -17.550781 12.945312 -17.78125 11.875 -17.78125 C 10.863281 -17.78125 9.898438 -17.578125 8.984375 -17.171875 C 8.078125 -16.773438 7.296875 -16.226562 6.640625 -15.53125 C 5.984375 -14.832031 5.46875 -14.015625 5.09375 -13.078125 C 4.71875 -12.148438 4.53125 -11.148438 4.53125 -10.078125 C 4.53125 -8.972656 4.722656 -7.945312 5.109375 -7 C 5.503906 -6.050781 6.03125 -5.234375 6.6875 -4.546875 C 7.34375 -3.867188 8.125 -3.328125 9.03125 -2.921875 C 9.9375 -2.523438 10.898438 -2.328125 11.921875 -2.328125 Z M 11.921875 -2.328125 "/>
</symbol>
<symbol overflow="visible" id="glyph1-4">
<path style="stroke:none;" d="M 2.53125 0 L 2.53125 -28.09375 L 5.5 -28.78125 L 5.5 -17.734375 C 6.269531 -18.648438 7.191406 -19.34375 8.265625 -19.8125 C 9.335938 -20.28125 10.53125 -20.515625 11.84375 -20.515625 C 14.113281 -20.515625 15.972656 -19.789062 17.421875 -18.34375 C 18.867188 -16.894531 19.59375 -15.019531 19.59375 -12.71875 L 19.59375 0 L 16.65625 0 L 16.65625 -12.125 C 16.65625 -13.882812 16.144531 -15.285156 15.125 -16.328125 C 14.113281 -17.378906 12.75 -17.90625 11.03125 -17.90625 C 9.832031 -17.90625 8.753906 -17.632812 7.796875 -17.09375 C 6.847656 -16.5625 6.082031 -15.800781 5.5 -14.8125 L 5.5 0 Z M 2.53125 0 "/>
</symbol>
<symbol overflow="visible" id="glyph1-5">
<path style="stroke:none;" d="M 2.53125 0 L 2.53125 -20.109375 L 5.5 -20.109375 L 5.5 -17.734375 C 6.269531 -18.648438 7.191406 -19.34375 8.265625 -19.8125 C 9.335938 -20.28125 10.53125 -20.515625 11.84375 -20.515625 C 14.113281 -20.515625 15.972656 -19.789062 17.421875 -18.34375 C 18.867188 -16.894531 19.59375 -15.019531 19.59375 -12.71875 L 19.59375 0 L 16.65625 0 L 16.65625 -12.125 C 16.65625 -13.882812 16.144531 -15.285156 15.125 -16.328125 C 14.113281 -17.378906 12.75 -17.90625 11.03125 -17.90625 C 9.832031 -17.90625 8.753906 -17.632812 7.796875 -17.09375 C 6.847656 -16.5625 6.082031 -15.800781 5.5 -14.8125 L 5.5 0 Z M 2.53125 0 "/>
</symbol>
<symbol overflow="visible" id="glyph1-6">
<path style="stroke:none;" d="M 1.609375 -10.078125 C 1.609375 -11.523438 1.875 -12.890625 2.40625 -14.171875 C 2.945312 -15.453125 3.675781 -16.5625 4.59375 -17.5 C 5.519531 -18.4375 6.609375 -19.171875 7.859375 -19.703125 C 9.117188 -20.242188 10.457031 -20.515625 11.875 -20.515625 C 13.300781 -20.515625 14.632812 -20.242188 15.875 -19.703125 C 17.113281 -19.171875 18.195312 -18.4375 19.125 -17.5 C 20.050781 -16.5625 20.78125 -15.453125 21.3125 -14.171875 C 21.851562 -12.890625 22.125 -11.523438 22.125 -10.078125 C 22.125 -8.609375 21.851562 -7.226562 21.3125 -5.9375 C 20.78125 -4.65625 20.050781 -3.546875 19.125 -2.609375 C 18.195312 -1.671875 17.113281 -0.929688 15.875 -0.390625 C 14.632812 0.140625 13.300781 0.40625 11.875 0.40625 C 10.457031 0.40625 9.117188 0.140625 7.859375 -0.390625 C 6.609375 -0.929688 5.519531 -1.671875 4.59375 -2.609375 C 3.675781 -3.546875 2.945312 -4.65625 2.40625 -5.9375 C 1.875 -7.226562 1.609375 -8.609375 1.609375 -10.078125 Z M 11.875 -2.25 C 12.894531 -2.25 13.851562 -2.445312 14.75 -2.84375 C 15.644531 -3.25 16.421875 -3.804688 17.078125 -4.515625 C 17.734375 -5.222656 18.25 -6.050781 18.625 -7 C 19 -7.945312 19.1875 -8.972656 19.1875 -10.078125 C 19.1875 -11.171875 19 -12.191406 18.625 -13.140625 C 18.25 -14.097656 17.734375 -14.921875 17.078125 -15.609375 C 16.421875 -16.304688 15.644531 -16.851562 14.75 -17.25 C 13.851562 -17.65625 12.894531 -17.859375 11.875 -17.859375 C 10.863281 -17.859375 9.910156 -17.65625 9.015625 -17.25 C 8.117188 -16.851562 7.34375 -16.304688 6.6875 -15.609375 C 6.03125 -14.921875 5.503906 -14.097656 5.109375 -13.140625 C 4.722656 -12.191406 4.53125 -11.171875 4.53125 -10.078125 C 4.53125 -8.972656 4.71875 -7.945312 5.09375 -7 C 5.46875 -6.050781 5.984375 -5.222656 6.640625 -4.515625 C 7.296875 -3.804688 8.078125 -3.25 8.984375 -2.84375 C 9.898438 -2.445312 10.863281 -2.25 11.875 -2.25 Z M 11.875 -2.25 "/>
</symbol>
<symbol overflow="visible" id="glyph1-7">
<path style="stroke:none;" d="M 5.5 -28.78125 L 5.5 0 L 2.53125 0 L 2.53125 -28.09375 Z M 5.5 -28.78125 "/>
</symbol>
<symbol overflow="visible" id="glyph1-8">
<path style="stroke:none;" d="M 11.640625 0.15625 C 10.242188 0.15625 8.9375 -0.109375 7.71875 -0.640625 C 6.507812 -1.171875 5.445312 -1.898438 4.53125 -2.828125 C 3.625 -3.753906 2.910156 -4.84375 2.390625 -6.09375 C 1.867188 -7.351562 1.609375 -8.707031 1.609375 -10.15625 C 1.609375 -11.601562 1.867188 -12.953125 2.390625 -14.203125 C 2.910156 -15.460938 3.625 -16.550781 4.53125 -17.46875 C 5.445312 -18.394531 6.519531 -19.125 7.75 -19.65625 C 8.976562 -20.195312 10.300781 -20.46875 11.71875 -20.46875 C 12.875 -20.46875 13.992188 -20.257812 15.078125 -19.84375 C 16.160156 -19.4375 17.15625 -18.859375 18.0625 -18.109375 L 18.0625 -20.109375 L 21 -20.109375 L 21 0.484375 C 21 3.046875 20.25 5.015625 18.75 6.390625 C 17.25 7.773438 15.109375 8.46875 12.328125 8.46875 C 10.929688 8.46875 9.550781 8.285156 8.1875 7.921875 C 6.820312 7.566406 5.578125 7.050781 4.453125 6.375 L 5.734375 4.046875 C 6.941406 4.691406 8.0625 5.160156 9.09375 5.453125 C 10.125 5.753906 11.160156 5.90625 12.203125 5.90625 C 14.097656 5.90625 15.539062 5.445312 16.53125 4.53125 C 17.519531 3.625 18.015625 2.285156 18.015625 0.515625 L 18.015625 -2.171875 C 17.109375 -1.421875 16.113281 -0.84375 15.03125 -0.4375 C 13.945312 -0.0390625 12.816406 0.15625 11.640625 0.15625 Z M 4.53125 -10.15625 C 4.53125 -9.082031 4.71875 -8.070312 5.09375 -7.125 C 5.46875 -6.175781 5.984375 -5.359375 6.640625 -4.671875 C 7.296875 -3.992188 8.078125 -3.453125 8.984375 -3.046875 C 9.898438 -2.648438 10.863281 -2.453125 11.875 -2.453125 C 13.164062 -2.453125 14.34375 -2.691406 15.40625 -3.171875 C 16.476562 -3.648438 17.347656 -4.332031 18.015625 -5.21875 L 18.015625 -15.09375 C 17.347656 -15.945312 16.472656 -16.613281 15.390625 -17.09375 C 14.304688 -17.582031 13.132812 -17.828125 11.875 -17.828125 C 10.832031 -17.828125 9.863281 -17.628906 8.96875 -17.234375 C 8.070312 -16.847656 7.296875 -16.304688 6.640625 -15.609375 C 5.984375 -14.921875 5.46875 -14.109375 5.09375 -13.171875 C 4.71875 -12.234375 4.53125 -11.226562 4.53125 -10.15625 Z M 4.53125 -10.15625 "/>
</symbol>
<symbol overflow="visible" id="glyph1-9">
<path style="stroke:none;" d="M 7.21875 2.609375 L 8.390625 -0.046875 L 0.203125 -20.109375 L 3.5 -20.109375 L 10 -3.609375 L 17.015625 -20.109375 L 20.234375 -20.109375 L 10.234375 3.015625 C 9.378906 4.941406 8.429688 6.332031 7.390625 7.1875 C 6.347656 8.039062 5.019531 8.46875 3.40625 8.46875 C 3.03125 8.46875 2.675781 8.445312 2.34375 8.40625 C 2.007812 8.363281 1.738281 8.316406 1.53125 8.265625 L 1.53125 5.578125 C 1.789062 5.628906 2.046875 5.664062 2.296875 5.6875 C 2.554688 5.71875 2.863281 5.734375 3.21875 5.734375 C 4.125 5.734375 4.894531 5.476562 5.53125 4.96875 C 6.175781 4.46875 6.738281 3.679688 7.21875 2.609375 Z M 7.21875 2.609375 "/>
</symbol>
<symbol overflow="visible" id="glyph1-10">
<path style="stroke:none;" d="M 3.09375 0 L 3.09375 -28.09375 L 15.296875 -28.09375 C 18.023438 -28.09375 20.21875 -27.347656 21.875 -25.859375 C 23.53125 -24.378906 24.359375 -22.421875 24.359375 -19.984375 C 24.359375 -17.554688 23.519531 -15.59375 21.84375 -14.09375 C 20.175781 -12.59375 17.992188 -11.84375 15.296875 -11.84375 L 6.1875 -11.84375 L 6.1875 0 Z M 15.046875 -25.328125 L 6.1875 -25.328125 L 6.1875 -14.53125 L 15.046875 -14.53125 C 16.953125 -14.53125 18.46875 -15.019531 19.59375 -16 C 20.71875 -16.976562 21.28125 -18.296875 21.28125 -19.953125 C 21.28125 -21.609375 20.71875 -22.914062 19.59375 -23.875 C 18.46875 -24.84375 16.953125 -25.328125 15.046875 -25.328125 Z M 15.046875 -25.328125 "/>
</symbol>
<symbol overflow="visible" id="glyph1-11">
<path style="stroke:none;" d="M 8.875 0.359375 C 6.675781 0.359375 4.882812 -0.203125 3.5 -1.328125 C 2.125 -2.453125 1.4375 -3.910156 1.4375 -5.703125 C 1.4375 -7.578125 2.160156 -9.066406 3.609375 -10.171875 C 5.054688 -11.285156 7.007812 -11.84375 9.46875 -11.84375 C 10.539062 -11.84375 11.578125 -11.722656 12.578125 -11.484375 C 13.585938 -11.242188 14.519531 -10.910156 15.375 -10.484375 L 15.375 -13.125 C 15.375 -14.726562 14.914062 -15.9375 14 -16.75 C 13.09375 -17.570312 11.769531 -17.984375 10.03125 -17.984375 C 9.039062 -17.984375 8.046875 -17.84375 7.046875 -17.5625 C 6.046875 -17.28125 4.941406 -16.832031 3.734375 -16.21875 L 2.609375 -18.5 C 4.054688 -19.195312 5.394531 -19.707031 6.625 -20.03125 C 7.851562 -20.351562 9.082031 -20.515625 10.3125 -20.515625 C 12.851562 -20.515625 14.8125 -19.910156 16.1875 -18.703125 C 17.570312 -17.503906 18.265625 -15.78125 18.265625 -13.53125 L 18.265625 0 L 15.375 0 L 15.375 -1.96875 C 14.46875 -1.1875 13.46875 -0.601562 12.375 -0.21875 C 11.289062 0.164062 10.125 0.359375 8.875 0.359375 Z M 4.296875 -5.78125 C 4.296875 -4.65625 4.769531 -3.738281 5.71875 -3.03125 C 6.664062 -2.320312 7.890625 -1.96875 9.390625 -1.96875 C 10.597656 -1.96875 11.695312 -2.15625 12.6875 -2.53125 C 13.675781 -2.90625 14.570312 -3.492188 15.375 -4.296875 L 15.375 -8.0625 C 14.539062 -8.625 13.648438 -9.03125 12.703125 -9.28125 C 11.753906 -9.539062 10.703125 -9.671875 9.546875 -9.671875 C 7.941406 -9.671875 6.664062 -9.316406 5.71875 -8.609375 C 4.769531 -7.898438 4.296875 -6.957031 4.296875 -5.78125 Z M 4.296875 -5.78125 "/>
</symbol>
<symbol overflow="visible" id="glyph1-12">
<path style="stroke:none;" d="M 2.53125 0 L 2.53125 -20.109375 L 5.5 -20.109375 L 5.5 -17.265625 C 6.082031 -18.304688 6.851562 -19.113281 7.8125 -19.6875 C 8.78125 -20.257812 9.882812 -20.546875 11.125 -20.546875 C 11.5 -20.546875 11.832031 -20.523438 12.125 -20.484375 C 12.414062 -20.453125 12.707031 -20.378906 13 -20.265625 L 13 -17.546875 C 12.65625 -17.648438 12.304688 -17.734375 11.953125 -17.796875 C 11.609375 -17.867188 11.265625 -17.90625 10.921875 -17.90625 C 9.691406 -17.90625 8.609375 -17.550781 7.671875 -16.84375 C 6.734375 -16.132812 6.007812 -15.109375 5.5 -13.765625 L 5.5 0 Z M 2.53125 0 "/>
</symbol>
<symbol overflow="visible" id="glyph1-13">
<path style="stroke:none;" d="M 5.015625 -4.5 L 5.015625 -17.578125 L 0.6875 -17.578125 L 0.6875 -20.109375 L 5.015625 -20.109375 L 5.015625 -25.203125 L 7.953125 -25.96875 L 7.953125 -20.109375 L 14.015625 -20.109375 L 14.015625 -17.578125 L 7.953125 -17.578125 L 7.953125 -5.265625 C 7.953125 -4.191406 8.191406 -3.421875 8.671875 -2.953125 C 9.148438 -2.484375 9.9375 -2.25 11.03125 -2.25 C 11.59375 -2.25 12.09375 -2.285156 12.53125 -2.359375 C 12.976562 -2.441406 13.457031 -2.578125 13.96875 -2.765625 L 13.96875 -0.15625 C 13.457031 0.03125 12.882812 0.160156 12.25 0.234375 C 11.625 0.316406 11.019531 0.359375 10.4375 0.359375 C 8.695312 0.359375 7.359375 -0.0507812 6.421875 -0.875 C 5.484375 -1.707031 5.015625 -2.914062 5.015625 -4.5 Z M 5.015625 -4.5 "/>
</symbol>
</g>
<filter id="alpha" filterUnits="objectBoundingBox" x="0%" y="0%" width="100%" height="100%">
  <feColorMatrix type="matrix" in="SourceGraphic" values="0 0 0 0 1 0 0 0 0 1 0 0 0 0 1 0 0 0 1 0"/>
</filter>
<mask id="mask0">
  <g filter="url(#alpha)">
<rect x="0" y="0" width="1230" height="693.000001" style="fill:rgb(0%,0%,0%);fill-opacity:0.8588;stroke:none;"/>
  </g>
</mask>
<clipPath id="clip2">
  <path d="M 1 0.535156 L 1091.8125 0.535156 L 1091.8125 382 L 1 382 Z M 1 0.535156 "/>
</clipPath>
<clipPath id="clip1">
  <rect x="0" y="0" width="1092" height="383"/>
</clipPath>
<g id="surface5" clip-path="url(#clip1)">
<g clip-path="url(#clip2)" clip-rule="nonzero">
<path style=" stroke:none;fill-rule:nonzero;fill:rgb(13.729858%,12.159729%,12.548828%);fill-opacity:1;" d="M 104.164062 0.699219 L 104.164062 381.621094 C 105.277344 381.699219 106.394531 381.699219 107.511719 381.699219 L 984.1875 381.699219 L 984.1875 0.699219 Z M 1012.882812 0.699219 L 984.1875 0.699219 L 984.1875 381.621094 L 984.824219 381.621094 C 1031.21875 381.621094 1071.953125 343.734375 1075.300781 297.476562 L 1091.003906 84.765625 C 1094.429688 38.585938 1059.277344 0.699219 1012.882812 0.699219 Z M 79.453125 0.699219 C 33.058594 0.699219 -2.09375 38.585938 1.332031 84.84375 L 17.035156 297.554688 C 20.382812 342.699219 59.285156 379.863281 104.242188 381.621094 L 104.242188 0.699219 Z M 79.453125 0.699219 "/>
</g>
</g>
<clipPath id="clip3">
  <path d="M 666 298 L 781 298 L 781 387.867188 L 666 387.867188 Z M 666 298 "/>
</clipPath>
<clipPath id="clip4">
  <path d="M 512 306 L 620 306 L 620 387.867188 L 512 387.867188 Z M 512 306 "/>
</clipPath>
<clipPath id="clip5">
  <path d="M 542 213.367188 L 699 213.367188 L 699 370 L 542 370 Z M 542 213.367188 "/>
</clipPath>
</defs>
<g id="surface1">
<use xlink:href="#surface5" transform="matrix(1,0,0,1,69,155)" mask="url(#mask0)"/>
<path style=" stroke:none;fill-rule:nonzero;fill:rgb(100%,39.99939%,0%);fill-opacity:1;" d="M 164.058594 307.242188 C 164.058594 311.125 163.371094 315.234375 162 318.890625 C 160.628906 322.316406 158.574219 325.285156 156.058594 328.023438 C 153.546875 330.539062 150.347656 332.59375 146.921875 334.191406 C 143.265625 335.789062 139.378906 336.476562 135.496094 336.476562 C 131.382812 336.476562 127.5 335.789062 123.613281 334.191406 C 116.53125 331.449219 110.816406 325.742188 107.847656 318.890625 C 106.25 315.234375 105.5625 311.351562 105.5625 307.46875 C 105.5625 299.703125 108.535156 292.164062 114.246094 286.683594 C 116.988281 283.945312 120.1875 281.886719 123.613281 280.515625 C 127.269531 278.917969 131.382812 278.234375 135.265625 278.234375 C 139.835938 278.234375 144.40625 279.148438 148.519531 280.972656 C 152.402344 282.800781 156.058594 285.3125 158.800781 288.738281 L 150.574219 296.277344 C 148.75 293.992188 146.464844 292.164062 143.722656 290.796875 C 140.980469 289.425781 138.238281 288.96875 135.265625 288.96875 C 127.957031 288.96875 121.328125 293.308594 118.816406 300.160156 C 116.988281 304.957031 116.988281 310.210938 118.816406 314.777344 C 119.730469 317.0625 120.871094 318.890625 122.699219 320.714844 C 124.300781 322.316406 126.355469 323.683594 128.414062 324.597656 C 130.695312 325.511719 133.210938 325.96875 135.496094 325.96875 C 139.152344 325.96875 142.808594 324.828125 145.777344 322.542969 C 148.519531 320.488281 150.574219 317.519531 151.03125 314.09375 L 134.351562 314.09375 L 134.351562 303.8125 L 163.601562 303.8125 Z M 164.058594 307.242188 "/>
<path style=" stroke:none;fill-rule:nonzero;fill:rgb(100%,39.99939%,0%);fill-opacity:1;" d="M 167.257812 326.425781 L 173.882812 317.976562 C 176.625 320.488281 179.824219 322.542969 183.480469 324.140625 C 186.449219 325.511719 189.875 326.199219 193.074219 326.199219 C 196.046875 326.425781 199.015625 325.742188 201.53125 324.371094 C 203.359375 323.457031 204.730469 321.402344 204.730469 319.117188 C 204.730469 317.289062 204.042969 315.691406 202.671875 314.550781 C 200.617188 313.179688 198.101562 312.265625 195.589844 312.035156 L 184.394531 310.210938 C 180.28125 309.753906 176.394531 307.925781 173.425781 305.183594 C 170.910156 302.445312 169.539062 298.789062 169.539062 295.136719 C 169.3125 290.109375 171.597656 285.542969 175.480469 282.574219 C 180.28125 279.375 185.992188 277.777344 191.703125 278.003906 C 195.816406 278.003906 200.160156 278.691406 204.042969 280.0625 C 207.925781 281.429688 211.8125 283.257812 215.011719 285.769531 L 208.613281 294.449219 C 205.871094 292.394531 202.902344 290.566406 199.703125 289.425781 C 196.730469 288.28125 193.761719 287.828125 190.789062 287.828125 C 188.277344 287.597656 185.535156 288.28125 183.25 289.652344 C 181.652344 290.566406 180.507812 292.394531 180.507812 294.222656 C 180.507812 295.820312 181.195312 297.191406 182.335938 298.332031 C 184.164062 299.476562 186.449219 300.160156 188.503906 300.386719 L 199.246094 302.214844 C 203.816406 302.671875 208.382812 304.5 211.8125 307.46875 C 214.78125 310.210938 216.152344 314.09375 216.152344 317.976562 C 216.382812 323.226562 213.867188 328.023438 209.753906 331.222656 C 204.730469 334.648438 198.558594 336.476562 192.390625 336.246094 C 187.820312 336.246094 183.25 335.332031 178.910156 333.734375 C 174.566406 331.90625 170.683594 329.625 167.257812 326.425781 Z M 167.257812 326.425781 "/>
<path style=" stroke:none;fill-rule:nonzero;fill:rgb(100%,39.99939%,0%);fill-opacity:1;" d="M 253.625 330.539062 C 257.054688 330.539062 260.480469 329.851562 263.679688 328.480469 C 266.648438 327.109375 269.390625 325.285156 271.675781 322.773438 L 275.789062 326.882812 C 273.046875 329.851562 269.621094 332.136719 265.734375 333.734375 C 261.851562 335.332031 257.738281 336.246094 253.625 336.246094 C 245.859375 336.246094 238.316406 333.277344 232.832031 327.796875 C 230.089844 325.054688 228.035156 322.085938 226.664062 318.433594 C 223.695312 311.125 223.695312 302.902344 226.664062 295.59375 C 228.035156 292.164062 230.320312 288.96875 232.832031 286.226562 C 235.574219 283.488281 238.773438 281.429688 242.203125 280.0625 C 245.859375 278.460938 249.742188 277.777344 253.625 277.777344 C 257.96875 277.777344 262.082031 278.691406 265.964844 280.289062 C 269.847656 281.886719 273.046875 284.171875 276.019531 287.140625 L 271.90625 291.480469 C 269.621094 288.96875 266.878906 286.914062 263.679688 285.769531 C 260.480469 284.398438 257.054688 283.714844 253.625 283.714844 C 250.425781 283.714844 247.457031 284.398438 244.488281 285.542969 C 239.003906 287.828125 234.660156 292.394531 232.375 297.875 C 230.089844 303.8125 230.089844 310.4375 232.375 316.375 C 233.519531 319.117188 235.117188 321.628906 237.175781 323.683594 C 241.515625 328.253906 247.457031 330.765625 253.625 330.539062 Z M 253.625 330.539062 "/>
<path style=" stroke:none;fill-rule:nonzero;fill:rgb(100%,39.99939%,0%);fill-opacity:1;" d="M 290.183594 277.546875 L 290.183594 335.5625 L 284.015625 335.5625 L 284.015625 278.917969 Z M 290.183594 277.546875 "/>
<path style=" stroke:none;fill-rule:nonzero;fill:rgb(100%,39.99939%,0%);fill-opacity:1;" d="M 298.410156 315.234375 C 298.410156 309.753906 300.46875 304.269531 304.351562 300.160156 C 312.347656 292.164062 325.371094 291.9375 333.371094 299.929688 C 333.371094 299.929688 333.597656 300.160156 333.597656 300.160156 C 335.425781 302.214844 337.027344 304.5 337.941406 307.011719 C 341.140625 315.007812 339.539062 324.140625 333.597656 330.308594 C 331.769531 332.136719 329.484375 333.734375 326.972656 334.648438 C 321.945312 336.703125 316.003906 336.703125 310.976562 334.648438 C 308.464844 333.507812 306.179688 332.136719 304.351562 330.308594 C 300.695312 326.199219 298.410156 320.945312 298.410156 315.234375 Z M 318.976562 330.992188 C 321.03125 330.992188 322.859375 330.539062 324.6875 329.851562 C 326.515625 328.9375 327.886719 327.796875 329.257812 326.425781 C 330.628906 325.054688 331.542969 323.226562 332.457031 321.402344 C 334.054688 317.519531 334.054688 312.949219 332.457031 309.066406 C 331.769531 307.242188 330.628906 305.640625 329.257812 304.042969 C 327.886719 302.671875 326.515625 301.53125 324.6875 300.617188 C 321.03125 299.019531 316.917969 299.019531 313.035156 300.617188 C 311.207031 301.300781 309.835938 302.445312 308.464844 304.042969 C 307.09375 305.414062 305.949219 307.242188 305.265625 309.066406 C 304.578125 311.125 304.125 313.179688 304.125 315.234375 C 304.125 317.289062 304.578125 319.34375 305.265625 321.402344 C 305.949219 323.226562 307.09375 325.054688 308.464844 326.425781 C 309.835938 327.796875 311.433594 328.9375 313.261719 329.851562 C 315.089844 330.539062 317.148438 330.992188 318.976562 330.992188 Z M 318.976562 330.992188 "/>
<path style=" stroke:none;fill-rule:nonzero;fill:rgb(100%,39.99939%,0%);fill-opacity:1;" d="M 353.707031 294.90625 L 353.707031 319.34375 C 353.476562 322.542969 354.621094 325.511719 356.675781 327.796875 C 358.960938 329.851562 361.933594 330.992188 364.902344 330.992188 C 369.472656 330.992188 373.8125 328.710938 376.097656 324.597656 L 376.097656 294.90625 L 382.265625 294.90625 L 382.265625 335.332031 L 376.328125 335.332031 L 376.328125 330.765625 C 374.726562 332.59375 372.898438 333.964844 370.84375 334.875 C 368.558594 335.789062 366.042969 336.246094 363.757812 336.246094 C 355.535156 336.703125 348.449219 330.308594 347.992188 322.085938 C 347.992188 321.628906 347.992188 321.171875 347.992188 320.714844 L 347.992188 294.90625 Z M 353.707031 294.90625 "/>
<path style=" stroke:none;fill-rule:nonzero;fill:rgb(100%,39.99939%,0%);fill-opacity:1;" d="M 423.851562 335.5625 L 423.851562 331.222656 C 422.253906 332.820312 420.199219 334.191406 417.914062 334.875 C 410.371094 337.617188 401.917969 335.789062 396.207031 330.082031 C 394.378906 328.253906 392.777344 325.96875 391.863281 323.457031 C 390.722656 320.945312 390.265625 317.976562 390.265625 315.234375 C 390.265625 312.492188 390.722656 309.753906 391.863281 307.011719 C 392.777344 304.5 394.378906 302.214844 396.207031 300.386719 C 400.089844 296.503906 405.34375 294.222656 410.828125 294.449219 C 413.113281 294.449219 415.398438 294.90625 417.683594 295.59375 C 419.96875 296.277344 422.023438 297.417969 423.851562 299.019531 L 423.851562 278.917969 L 429.792969 277.546875 L 429.792969 335.5625 Z M 396.433594 315.007812 C 396.433594 317.0625 396.890625 319.34375 397.578125 321.171875 C 398.261719 323 399.40625 324.828125 400.777344 326.199219 C 402.144531 327.566406 403.746094 328.710938 405.574219 329.625 C 407.402344 330.539062 409.457031 330.765625 411.515625 330.765625 C 414.027344 330.765625 416.3125 330.308594 418.597656 329.167969 C 420.65625 328.253906 422.480469 326.882812 424.082031 325.054688 L 424.082031 304.957031 C 422.710938 303.128906 420.882812 301.757812 418.597656 300.84375 C 416.3125 299.929688 414.027344 299.246094 411.515625 299.246094 C 407.402344 299.246094 403.515625 300.84375 400.777344 303.8125 C 397.804688 307.011719 396.207031 310.894531 396.433594 315.007812 Z M 396.433594 315.007812 "/>
<g clip-path="url(#clip3)" clip-rule="nonzero">
<path style=" stroke:none;fill-rule:nonzero;fill:rgb(96.859741%,58.81958%,27.449036%);fill-opacity:1;" d="M 780.300781 343.785156 C 779.84375 368.222656 759.964844 387.867188 735.515625 387.867188 L 675.652344 387.410156 C 661.257812 387.410156 667.425781 371.421875 667.425781 371.421875 L 683.648438 342.414062 C 687.761719 336.246094 691.417969 330.539062 694.160156 325.511719 C 694.386719 325.054688 694.617188 324.371094 695.074219 323.914062 L 704.441406 336.019531 C 705.128906 337.160156 706.726562 337.390625 707.871094 336.703125 C 708.785156 336.246094 709.242188 335.332031 709.242188 334.421875 L 709.46875 329.851562 L 710.382812 306.785156 C 710.382812 306.097656 710.839844 305.414062 711.527344 304.957031 C 718.609375 300.386719 727.0625 298.105469 735.515625 298.105469 C 760.421875 298.5625 780.53125 318.890625 780.300781 343.785156 C 780.53125 343.785156 780.53125 343.785156 780.300781 343.785156 Z M 780.300781 343.785156 "/>
</g>
<g clip-path="url(#clip4)" clip-rule="nonzero">
<path style=" stroke:none;fill-rule:nonzero;fill:rgb(95.689392%,52.938843%,14.509583%);fill-opacity:1;" d="M 560.035156 387.410156 L 559.121094 387.636719 C 557.292969 387.867188 555.695312 387.867188 554.324219 387.867188 L 553.636719 387.867188 C 531.015625 387.636719 512.738281 369.136719 512.738281 346.523438 C 512.964844 327.566406 525.988281 311.125 544.496094 306.785156 C 551.582031 342.640625 582.882812 368.679688 619.214844 369.367188 C 600.933594 379.1875 580.828125 385.351562 560.035156 387.410156 Z M 560.035156 387.410156 "/>
</g>
<g clip-path="url(#clip5)" clip-rule="nonzero">
<path style=" stroke:none;fill-rule:nonzero;fill:rgb(100%,39.99939%,0%);fill-opacity:1;" d="M 673.367188 319.800781 L 685.933594 320.03125 C 674.28125 331.222656 661.714844 341.273438 648.460938 350.636719 C 643.433594 354.0625 638.40625 357.488281 633.609375 360.6875 C 628.8125 363.882812 624.011719 366.625 619.214844 369.136719 C 576.257812 368.222656 541.984375 332.59375 542.898438 289.652344 C 543.8125 246.714844 579.457031 212.453125 622.414062 213.367188 C 664.226562 214.28125 698.042969 248.085938 698.730469 289.882812 C 698.730469 290.796875 698.5 291.480469 697.816406 292.164062 L 671.3125 314.320312 C 670.398438 315.007812 670.167969 315.917969 670.167969 317.0625 C 670.625 318.660156 671.769531 319.800781 673.367188 319.800781 Z M 673.367188 319.800781 "/>
</g>
<path style=" stroke:none;fill-rule:nonzero;fill:rgb(100%,100%,100%);fill-opacity:1;" d="M 254.3125 354.746094 L 273.503906 378.730469 L 273.503906 354.746094 L 277.390625 354.746094 L 277.390625 386.265625 L 274.875 386.265625 L 255.453125 362.285156 L 255.453125 386.265625 L 251.570312 386.265625 L 251.570312 354.746094 Z M 254.3125 354.746094 "/>
<path style=" stroke:none;fill-rule:nonzero;fill:rgb(100%,100%,100%);fill-opacity:1;" d="M 304.351562 382.613281 C 303.210938 383.984375 301.839844 384.898438 300.238281 385.582031 C 298.640625 386.265625 296.8125 386.496094 294.984375 386.496094 C 291.785156 386.722656 288.8125 385.582031 286.527344 383.296875 C 281.960938 378.730469 281.960938 371.191406 286.757812 366.625 C 291.554688 362.054688 298.867188 362.054688 303.4375 366.851562 C 305.722656 369.59375 306.636719 373.019531 305.949219 376.445312 L 287.214844 376.445312 C 287.441406 378.273438 288.355469 380.101562 289.726562 381.242188 C 291.328125 382.382812 293.15625 383.070312 295.210938 383.070312 C 296.582031 383.070312 297.953125 382.839844 299.097656 382.382812 C 300.238281 381.925781 301.382812 381.242188 302.066406 380.328125 Z M 302.296875 373.476562 C 302.296875 371.648438 301.609375 369.820312 300.011719 368.679688 C 298.410156 367.539062 296.582031 366.851562 294.753906 366.851562 C 292.925781 366.851562 291.097656 367.308594 289.5 368.679688 C 287.898438 369.820312 286.984375 371.648438 286.757812 373.476562 Z M 302.296875 373.476562 "/>
<path style=" stroke:none;fill-rule:nonzero;fill:rgb(100%,100%,100%);fill-opacity:1;" d="M 316.917969 364.113281 L 323.773438 364.113281 L 323.773438 367.308594 L 316.917969 367.308594 L 316.917969 378.957031 C 316.917969 381.699219 318.0625 383.296875 320.347656 383.296875 C 321.488281 383.296875 322.402344 383.070312 323.546875 382.613281 L 324.6875 385.582031 C 323.316406 386.265625 321.945312 386.496094 320.347656 386.722656 C 315.546875 386.722656 313.261719 384.210938 313.261719 379.1875 L 313.261719 367.539062 L 308.691406 367.539062 L 308.691406 364.113281 L 313.261719 364.113281 L 313.261719 357.945312 L 316.917969 357.488281 Z M 316.917969 364.113281 "/>
<path style=" stroke:none;fill-rule:nonzero;fill:rgb(100%,100%,100%);fill-opacity:1;" d="M 330.628906 364.113281 L 336.570312 382.382812 L 342.511719 364.113281 L 345.480469 364.113281 L 351.421875 382.382812 L 357.363281 364.113281 L 361.476562 364.113281 L 353.707031 386.265625 L 349.59375 386.265625 L 346.621094 378.042969 L 344.335938 370.050781 L 341.824219 378.042969 L 338.855469 386.265625 L 334.742188 386.265625 L 326.742188 364.113281 Z M 330.628906 364.113281 "/>
<path style=" stroke:none;fill-rule:nonzero;fill:rgb(100%,100%,100%);fill-opacity:1;" d="M 367.1875 366.851562 C 369.472656 364.570312 372.441406 363.425781 375.414062 363.65625 C 381.582031 363.425781 386.609375 368.222656 387.066406 374.160156 C 387.066406 374.617188 387.066406 374.847656 387.066406 375.304688 C 387.066406 378.273438 385.921875 381.46875 383.867188 383.527344 C 381.582031 385.582031 378.613281 386.953125 375.640625 386.722656 C 372.671875 386.722656 369.699219 385.582031 367.414062 383.527344 C 365.128906 381.46875 363.988281 378.273438 364.214844 375.304688 C 363.988281 372.105469 365.128906 369.136719 367.1875 366.851562 Z M 381.125 369.136719 C 377.925781 366.167969 372.898438 366.167969 369.929688 369.136719 C 368.328125 370.734375 367.644531 372.792969 367.644531 375.074219 C 367.644531 377.132812 368.328125 379.414062 369.929688 380.785156 C 373.128906 383.753906 377.925781 383.753906 381.125 380.785156 C 382.722656 379.1875 383.410156 377.132812 383.410156 375.074219 C 383.636719 373.019531 382.722656 370.734375 381.125 369.136719 Z M 381.125 369.136719 "/>
<path style=" stroke:none;fill-rule:nonzero;fill:rgb(100%,100%,100%);fill-opacity:1;" d="M 395.976562 364.113281 L 396.207031 367.539062 C 397.578125 365.027344 400.320312 363.65625 403.058594 363.882812 C 404.886719 363.882812 406.714844 364.339844 408.316406 365.484375 L 406.714844 368.679688 C 403.972656 366.851562 400.546875 367.082031 398.261719 369.367188 C 396.890625 370.734375 396.207031 372.335938 396.433594 374.160156 L 396.433594 386.496094 L 392.777344 386.496094 L 392.777344 364.113281 Z M 395.976562 364.113281 "/>
<path style=" stroke:none;fill-rule:nonzero;fill:rgb(100%,100%,100%);fill-opacity:1;" d="M 415.398438 373.476562 L 424.539062 364.113281 L 429.109375 364.113281 L 429.109375 364.339844 L 418.828125 374.617188 L 430.25 386.039062 L 430.25 386.265625 L 425.679688 386.265625 L 415.171875 375.761719 L 415.171875 386.265625 L 411.515625 386.265625 L 411.515625 354.746094 L 415.171875 354.746094 Z M 415.398438 373.476562 "/>
<path style="fill:none;stroke-width:1;stroke-linecap:round;stroke-linejoin:miter;stroke:rgb(100%,39.99939%,0%);stroke-opacity:1;stroke-miterlimit:4;" d="M 0.500078 -0.000458476 L 53.685359 -0.000458476 " transform="matrix(0.000000000000000229,-3.745676,3.744596,0.000000000000000229,816.150154,402.107506)"/>
<path style=" stroke:none;fill-rule:nonzero;fill:rgb(100%,39.99939%,0%);fill-opacity:1;" d="M 771.851562 465.898438 L 633.980469 435.546875 C 623.601562 433.257812 606.5625 433.257812 596.183594 435.546875 L 458.308594 465.898438 C 447.929688 468.1875 439.410156 478.785156 439.410156 489.449219 L 439.410156 530.65625 C 439.410156 541.535156 447.929688 552.34375 458.308594 554.707031 L 596.183594 585.777344 C 606.5625 588.136719 623.601562 588.136719 633.980469 585.777344 L 771.851562 554.707031 C 782.234375 552.34375 790.753906 541.535156 790.753906 530.65625 L 790.753906 489.449219 C 790.753906 478.785156 782.234375 468.1875 771.851562 465.898438 Z M 771.851562 465.898438 "/>
<g style="fill:rgb(100%,100%,100%);fill-opacity:1;">
  <use xlink:href="#glyph0-1" x="848.16903" y="296.674741"/>
</g>
<g style="fill:rgb(100%,100%,100%);fill-opacity:1;">
  <use xlink:href="#glyph0-2" x="890.679606" y="296.674741"/>
</g>
<g style="fill:rgb(100%,100%,100%);fill-opacity:1;">
  <use xlink:href="#glyph0-3" x="922.249746" y="296.674741"/>
</g>
<g style="fill:rgb(100%,100%,100%);fill-opacity:1;">
  <use xlink:href="#glyph0-4" x="937.147359" y="296.674741"/>
</g>
<g style="fill:rgb(100%,100%,100%);fill-opacity:1;">
  <use xlink:href="#glyph0-5" x="972.092742" y="296.674741"/>
</g>
<g style="fill:rgb(100%,100%,100%);fill-opacity:1;">
  <use xlink:href="#glyph0-6" x="1001.01507" y="296.674741"/>
</g>
<g style="fill:rgb(100%,100%,100%);fill-opacity:1;">
  <use xlink:href="#glyph0-7" x="1022.197608" y="296.674741"/>
</g>
<g style="fill:rgb(100%,100%,100%);fill-opacity:1;">
  <use xlink:href="#glyph0-8" x="1043.060083" y="296.674741"/>
</g>
<g style="fill:rgb(100%,100%,100%);fill-opacity:1;">
  <use xlink:href="#glyph0-9" x="1075.532219" y="296.674741"/>
</g>
<g style="fill:rgb(100%,100%,100%);fill-opacity:1;">
  <use xlink:href="#glyph0-6" x="1106.258554" y="296.674741"/>
</g>
<g style="fill:rgb(100%,100%,100%);fill-opacity:1;">
  <use xlink:href="#glyph0-10" x="875.07381" y="347.594108"/>
</g>
<g style="fill:rgb(100%,100%,100%);fill-opacity:1;">
  <use xlink:href="#glyph0-9" x="919.504781" y="347.594108"/>
</g>
<g style="fill:rgb(100%,100%,100%);fill-opacity:1;">
  <use xlink:href="#glyph0-7" x="950.231117" y="347.594108"/>
</g>
<g style="fill:rgb(100%,100%,100%);fill-opacity:1;">
  <use xlink:href="#glyph0-11" x="971.093592" y="347.594108"/>
</g>
<g style="fill:rgb(100%,100%,100%);fill-opacity:1;">
  <use xlink:href="#glyph0-12" x="1016.804832" y="347.594108"/>
</g>
<g style="fill:rgb(100%,100%,100%);fill-opacity:1;">
  <use xlink:href="#glyph0-6" x="1049.800723" y="347.594108"/>
</g>
<g style="fill:rgb(100%,100%,100%);fill-opacity:1;">
  <use xlink:href="#glyph0-13" x="1070.983262" y="347.594108"/>
</g>
<g style="fill:rgb(100%,100%,100%);fill-opacity:1;">
  <use xlink:href="#glyph1-1" x="509.245279" y="496.772328"/>
</g>
<g style="fill:rgb(100%,100%,100%);fill-opacity:1;">
  <use xlink:href="#glyph1-2" x="534.008891" y="496.772328"/>
</g>
<g style="fill:rgb(100%,100%,100%);fill-opacity:1;">
  <use xlink:href="#glyph1-3" x="556.645319" y="496.772328"/>
</g>
<g style="fill:rgb(100%,100%,100%);fill-opacity:1;">
  <use xlink:href="#glyph1-4" x="577.234839" y="496.772328"/>
</g>
<g style="fill:rgb(100%,100%,100%);fill-opacity:1;">
  <use xlink:href="#glyph1-5" x="599.269231" y="496.772328"/>
</g>
<g style="fill:rgb(100%,100%,100%);fill-opacity:1;">
  <use xlink:href="#glyph1-6" x="621.303624" y="496.772328"/>
</g>
<g style="fill:rgb(100%,100%,100%);fill-opacity:1;">
  <use xlink:href="#glyph1-7" x="645.023713" y="496.772328"/>
</g>
<g style="fill:rgb(100%,100%,100%);fill-opacity:1;">
  <use xlink:href="#glyph1-6" x="653.050818" y="496.772328"/>
</g>
<g style="fill:rgb(100%,100%,100%);fill-opacity:1;">
  <use xlink:href="#glyph1-8" x="676.770907" y="496.772328"/>
</g>
<g style="fill:rgb(100%,100%,100%);fill-opacity:1;">
  <use xlink:href="#glyph1-9" x="700.290311" y="496.772328"/>
</g>
<g style="fill:rgb(100%,100%,100%);fill-opacity:1;">
  <use xlink:href="#glyph1-10" x="548.117015" y="552.912958"/>
</g>
<g style="fill:rgb(100%,100%,100%);fill-opacity:1;">
  <use xlink:href="#glyph1-11" x="574.08469" y="552.912958"/>
</g>
<g style="fill:rgb(100%,100%,100%);fill-opacity:1;">
  <use xlink:href="#glyph1-12" x="594.794611" y="552.912958"/>
</g>
<g style="fill:rgb(100%,100%,100%);fill-opacity:1;">
  <use xlink:href="#glyph1-13" x="608.681498" y="552.912958"/>
</g>
<g style="fill:rgb(100%,100%,100%);fill-opacity:1;">
  <use xlink:href="#glyph1-5" x="623.330959" y="552.912958"/>
</g>
<g style="fill:rgb(100%,100%,100%);fill-opacity:1;">
  <use xlink:href="#glyph1-2" x="645.365351" y="552.912958"/>
</g>
<g style="fill:rgb(100%,100%,100%);fill-opacity:1;">
  <use xlink:href="#glyph1-12" x="668.001779" y="552.912958"/>
</g>
</g>
</svg>
