<?xml version="1.0" encoding="UTF-8"?>
<svg xmlns="http://www.w3.org/2000/svg" xmlns:xlink="http://www.w3.org/1999/xlink" width="810pt" height="809.999993pt" viewBox="0 0 810 809.999993" version="1.2">
<defs>
<clipPath id="clip1">
  <path d="M 294 433 L 329 433 L 329 474.839844 L 294 474.839844 Z M 294 433 "/>
</clipPath>
<clipPath id="clip2">
  <path d="M 336 444 L 367 444 L 367 474.839844 L 336 474.839844 Z M 336 444 "/>
</clipPath>
<clipPath id="clip3">
  <path d="M 369 436 L 391 436 L 391 474.839844 L 369 474.839844 Z M 369 436 "/>
</clipPath>
<clipPath id="clip4">
  <path d="M 393 445 L 440 445 L 440 474.839844 L 393 474.839844 Z M 393 445 "/>
</clipPath>
<clipPath id="clip5">
  <path d="M 442 444 L 473 444 L 473 474.839844 L 442 474.839844 Z M 442 444 "/>
</clipPath>
<clipPath id="clip6">
  <path d="M 480 444 L 501 444 L 501 474.839844 L 480 474.839844 Z M 480 444 "/>
</clipPath>
<clipPath id="clip7">
  <path d="M 505 433 L 530 433 L 530 474.839844 L 505 474.839844 Z M 505 433 "/>
</clipPath>
</defs>
<g id="surface1">
<path style=" stroke:none;fill-rule:nonzero;fill:rgb(100%,100%,100%);fill-opacity:1;" d="M 286.816406 378.0625 C 286.816406 382.867188 285.914062 387.667969 284.113281 392.472656 C 282.613281 396.675781 279.914062 400.574219 276.914062 403.878906 C 273.613281 407.179688 270.011719 409.582031 265.808594 411.382812 C 261.308594 413.183594 256.808594 414.082031 252.007812 414.082031 C 246.90625 414.082031 242.105469 413.183594 237.601562 411.382812 C 228.898438 407.78125 221.699219 401.175781 218.097656 392.472656 C 215.996094 387.96875 215.097656 383.167969 215.097656 378.363281 C 215.097656 368.757812 218.996094 359.453125 225.597656 352.851562 C 228.898438 349.546875 232.800781 347.148438 237.300781 345.347656 C 241.804688 343.542969 246.90625 342.644531 251.707031 342.644531 C 257.40625 342.644531 262.808594 343.84375 267.910156 346.246094 C 272.710938 348.347656 277.214844 351.648438 280.515625 355.851562 L 270.613281 365.15625 C 268.210938 362.457031 265.511719 360.054688 262.210938 358.554688 C 258.910156 357.050781 255.308594 356.152344 251.707031 356.152344 C 242.703125 356.152344 234.601562 361.554688 231.601562 369.960938 C 230.402344 372.960938 229.800781 375.960938 230.101562 378.964844 C 230.101562 381.964844 230.699219 384.96875 231.902344 387.96875 C 234 393.371094 238.203125 397.875 243.605469 399.976562 C 246.304688 401.175781 249.304688 401.777344 252.304688 401.777344 C 256.808594 401.777344 261.308594 400.574219 264.910156 397.574219 C 268.210938 395.171875 270.613281 391.269531 271.511719 387.070312 L 251.105469 387.070312 L 251.105469 374.460938 L 287.117188 374.460938 Z M 286.816406 378.0625 "/>
<path style=" stroke:none;fill-rule:nonzero;fill:rgb(100%,100%,100%);fill-opacity:1;" d="M 290.714844 401.777344 L 299.117188 391.570312 C 302.71875 394.574219 306.621094 397.273438 310.820312 399.375 C 314.722656 400.875 318.625 401.777344 322.824219 401.777344 C 326.425781 402.078125 330.027344 401.175781 333.027344 399.375 C 335.429688 398.175781 336.929688 395.773438 336.929688 393.070312 C 336.929688 390.972656 336.027344 388.871094 334.226562 387.367188 C 331.527344 385.566406 328.527344 384.667969 325.527344 384.367188 L 311.722656 381.964844 C 306.621094 381.367188 301.820312 379.265625 298.21875 375.664062 C 295.21875 372.359375 293.417969 367.859375 293.71875 363.355469 C 293.417969 357.351562 296.417969 351.648438 301.21875 348.046875 C 306.921875 344.144531 314.121094 342.042969 321.023438 342.34375 C 326.125 342.34375 331.226562 343.246094 336.328125 345.046875 C 341.128906 346.546875 345.632812 348.949219 349.832031 352.25 L 342.03125 363.054688 C 338.730469 360.355469 335.128906 358.253906 331.226562 356.753906 C 327.625 355.550781 324.027344 354.652344 320.125 354.652344 C 316.824219 354.652344 313.824219 355.25 310.820312 356.753906 C 308.722656 357.953125 307.222656 360.054688 307.222656 362.457031 C 307.222656 364.257812 307.820312 366.355469 309.621094 367.558594 C 312.023438 369.058594 314.421875 369.960938 317.125 370.257812 L 330.328125 372.359375 C 336.027344 372.960938 341.429688 375.363281 345.929688 378.964844 C 349.53125 382.265625 351.332031 387.070312 351.03125 391.871094 C 351.332031 398.175781 348.332031 404.476562 342.929688 408.078125 C 336.628906 412.28125 329.125 414.382812 321.625 414.082031 C 315.921875 414.082031 310.523438 412.882812 305.121094 410.78125 C 299.71875 408.378906 294.917969 405.378906 290.714844 401.777344 Z M 290.714844 401.777344 "/>
<path style=" stroke:none;fill-rule:nonzero;fill:rgb(100%,100%,100%);fill-opacity:1;" d="M 392.742188 406.878906 C 396.945312 406.878906 401.144531 405.980469 405.046875 404.179688 C 408.949219 402.675781 412.25 400.277344 414.949219 397.273438 L 420.050781 402.375 C 416.449219 405.980469 412.25 408.980469 407.746094 410.78125 C 402.945312 412.882812 397.84375 413.78125 392.742188 413.78125 C 383.140625 413.78125 373.839844 410.179688 367.238281 403.277344 C 363.9375 399.976562 361.234375 396.074219 359.433594 391.871094 C 355.835938 382.867188 355.835938 372.660156 359.433594 363.65625 C 361.234375 359.453125 363.9375 355.550781 367.238281 352.25 C 374.140625 345.644531 383.441406 341.742188 393.042969 342.042969 C 398.144531 342.042969 403.546875 342.945312 408.347656 345.046875 C 412.847656 346.847656 417.050781 349.847656 420.652344 353.449219 L 415.550781 358.851562 C 412.847656 355.851562 409.25 353.449219 405.347656 351.648438 C 401.445312 349.847656 397.246094 349.246094 393.042969 349.246094 C 389.144531 349.246094 385.542969 349.847656 381.941406 351.648438 C 378.640625 353.148438 375.640625 354.949219 372.9375 357.652344 C 370.238281 360.355469 368.4375 363.355469 366.9375 366.65625 C 363.9375 373.863281 363.9375 381.964844 366.9375 389.46875 C 368.4375 392.773438 370.238281 395.773438 372.9375 398.476562 C 375.640625 400.875 378.640625 402.976562 381.941406 404.476562 C 385.242188 405.980469 388.84375 406.878906 392.742188 406.878906 Z M 392.742188 406.878906 "/>
<path style=" stroke:none;fill-rule:nonzero;fill:rgb(100%,100%,100%);fill-opacity:1;" d="M 437.457031 341.445312 L 437.457031 412.582031 L 430.253906 412.582031 L 430.253906 343.246094 Z M 437.457031 341.445312 "/>
<path style=" stroke:none;fill-rule:nonzero;fill:rgb(100%,100%,100%);fill-opacity:1;" d="M 447.660156 387.96875 C 447.660156 381.066406 450.359375 374.460938 455.160156 369.660156 C 465.0625 359.753906 480.96875 359.753906 490.871094 369.359375 C 490.871094 369.359375 491.171875 369.660156 491.171875 369.660156 C 498.371094 377.164062 500.472656 388.570312 496.570312 398.175781 C 495.371094 401.175781 493.570312 404.179688 491.171875 406.277344 C 481.265625 416.183594 465.0625 416.183594 455.160156 406.277344 C 452.761719 403.878906 450.960938 401.175781 449.757812 398.175781 C 448.558594 394.871094 447.660156 391.269531 447.660156 387.96875 Z M 473.164062 407.179688 C 475.566406 407.179688 477.964844 406.578125 480.367188 405.679688 C 482.46875 404.777344 484.570312 403.277344 486.070312 401.476562 C 487.871094 399.675781 489.070312 397.574219 489.96875 395.171875 C 491.769531 390.371094 491.769531 384.96875 489.96875 379.863281 C 489.070312 377.761719 487.871094 375.664062 486.070312 373.863281 C 484.570312 372.058594 482.46875 370.859375 480.367188 369.660156 C 475.867188 367.859375 470.765625 367.859375 466.261719 369.660156 C 464.164062 370.558594 462.0625 372.058594 460.5625 373.863281 C 459.0625 375.664062 457.5625 377.761719 456.660156 379.863281 C 455.761719 382.265625 455.160156 384.96875 455.160156 387.367188 C 455.160156 390.070312 455.460938 392.472656 456.660156 394.871094 C 457.5625 397.273438 458.761719 399.375 460.5625 401.175781 C 462.0625 402.976562 464.164062 404.476562 466.261719 405.378906 C 468.363281 406.578125 470.765625 407.179688 473.164062 407.179688 Z M 473.164062 407.179688 "/>
<path style=" stroke:none;fill-rule:nonzero;fill:rgb(100%,100%,100%);fill-opacity:1;" d="M 515.777344 363.054688 L 515.777344 393.070312 C 515.476562 396.972656 516.976562 400.574219 519.378906 403.578125 C 522.078125 406.277344 525.679688 407.78125 529.582031 407.480469 C 532.28125 407.480469 535.28125 406.878906 537.683594 405.378906 C 540.082031 403.878906 541.882812 402.078125 543.382812 399.675781 L 543.382812 363.054688 L 550.585938 363.054688 L 550.585938 412.882812 L 543.382812 412.882812 L 543.382812 407.179688 C 541.582031 409.28125 539.183594 411.082031 536.480469 412.28125 C 533.78125 413.484375 530.78125 414.082031 527.78125 414.082031 C 517.578125 414.683594 508.875 406.578125 508.574219 396.675781 C 508.574219 396.074219 508.574219 395.472656 508.574219 394.871094 L 508.574219 363.355469 L 515.777344 363.355469 Z M 515.777344 363.054688 "/>
<path style=" stroke:none;fill-rule:nonzero;fill:rgb(100%,100%,100%);fill-opacity:1;" d="M 602.199219 412.882812 L 602.199219 407.480469 C 600.097656 409.582031 597.699219 411.082031 594.996094 411.980469 C 592.296875 412.882812 589.296875 413.484375 586.296875 413.484375 C 582.996094 413.484375 579.695312 412.882812 576.394531 411.382812 C 573.390625 410.179688 570.691406 408.378906 568.589844 405.980469 C 566.191406 403.578125 564.390625 400.875 563.1875 397.875 C 560.488281 391.269531 560.488281 384.066406 563.1875 377.761719 C 565.589844 371.761719 570.390625 366.65625 576.394531 364.257812 C 579.394531 363.054688 582.996094 362.15625 586.296875 362.15625 C 589.296875 362.15625 591.996094 362.753906 594.699219 363.65625 C 597.398438 364.554688 600.097656 366.058594 602.199219 367.859375 L 602.199219 343.246094 L 609.402344 341.445312 L 609.402344 412.582031 Z M 568.289062 387.667969 C 568.289062 390.371094 568.890625 392.773438 569.792969 395.472656 C 570.691406 397.574219 571.890625 399.675781 573.691406 401.476562 C 576.992188 405.078125 581.792969 407.179688 586.894531 407.179688 C 589.894531 407.179688 592.898438 406.578125 595.597656 405.378906 C 598.296875 404.179688 600.398438 402.375 602.199219 400.277344 L 602.199219 375.664062 C 600.398438 373.5625 598 371.761719 595.597656 370.558594 C 592.898438 369.359375 589.894531 368.757812 586.894531 368.757812 C 582.09375 368.757812 577.292969 370.558594 573.691406 374.160156 C 570.089844 377.761719 567.992188 382.566406 568.289062 387.667969 Z M 568.289062 387.667969 "/>
<g clip-path="url(#clip1)" clip-rule="nonzero">
<path style=" stroke:none;fill-rule:nonzero;fill:rgb(100%,39.99939%,0%);fill-opacity:1;" d="M 298.519531 433.292969 L 323.726562 465.109375 L 323.726562 433.292969 L 328.828125 433.292969 L 328.828125 474.714844 L 325.226562 474.714844 L 299.71875 443.199219 L 299.71875 474.714844 L 294.617188 474.714844 L 294.617188 433.292969 Z M 298.519531 433.292969 "/>
</g>
<g clip-path="url(#clip2)" clip-rule="nonzero">
<path style=" stroke:none;fill-rule:nonzero;fill:rgb(100%,39.99939%,0%);fill-opacity:1;" d="M 364.234375 469.914062 C 362.734375 471.714844 360.933594 472.914062 358.835938 473.816406 C 356.734375 474.714844 354.332031 475.015625 351.933594 475.015625 C 347.730469 475.316406 343.832031 473.816406 340.828125 470.8125 C 334.828125 464.8125 334.828125 454.90625 341.128906 448.902344 C 347.132812 442.898438 357.035156 442.898438 363.035156 449.203125 C 366.035156 452.804688 367.238281 457.308594 366.335938 461.808594 L 341.429688 461.808594 C 341.730469 464.210938 342.929688 466.613281 344.730469 468.113281 C 346.832031 469.613281 349.230469 470.515625 351.933594 470.515625 C 353.734375 470.515625 355.535156 470.214844 357.035156 469.613281 C 358.535156 469.011719 360.035156 468.113281 360.933594 466.914062 Z M 361.535156 457.90625 C 361.535156 455.507812 360.335938 453.105469 358.535156 451.605469 C 356.433594 450.101562 354.035156 449.203125 351.632812 449.203125 C 349.230469 449.203125 346.832031 450.101562 344.730469 451.605469 C 342.628906 453.105469 341.429688 455.507812 341.128906 457.90625 Z M 361.535156 457.90625 "/>
</g>
<g clip-path="url(#clip3)" clip-rule="nonzero">
<path style=" stroke:none;fill-rule:nonzero;fill:rgb(100%,39.99939%,0%);fill-opacity:1;" d="M 380.742188 445.601562 L 389.742188 445.601562 L 389.742188 449.804688 L 380.742188 449.804688 L 380.742188 465.109375 C 380.742188 468.714844 382.242188 470.8125 385.242188 470.8125 C 386.742188 470.8125 387.941406 470.515625 389.144531 469.613281 L 390.644531 473.515625 C 388.84375 474.417969 387.042969 474.714844 384.941406 475.015625 C 378.640625 475.015625 375.640625 471.714844 375.640625 465.109375 L 375.640625 449.804688 L 369.636719 449.804688 L 369.636719 445.601562 L 375.339844 445.601562 L 375.339844 437.496094 L 380.140625 436.894531 L 380.140625 445.601562 Z M 380.742188 445.601562 "/>
</g>
<g clip-path="url(#clip4)" clip-rule="nonzero">
<path style=" stroke:none;fill-rule:nonzero;fill:rgb(100%,39.99939%,0%);fill-opacity:1;" d="M 398.746094 445.300781 L 406.546875 469.3125 L 414.351562 445.300781 L 418.25 445.300781 L 426.054688 469.3125 L 433.855469 445.300781 L 439.257812 445.300781 L 429.054688 474.417969 L 423.652344 474.417969 L 419.75 463.609375 L 416.75 453.105469 L 413.449219 463.609375 L 409.25 474.714844 L 403.847656 474.714844 L 393.34375 445.300781 Z M 398.746094 445.300781 "/>
</g>
<g clip-path="url(#clip5)" clip-rule="nonzero">
<path style=" stroke:none;fill-rule:nonzero;fill:rgb(100%,39.99939%,0%);fill-opacity:1;" d="M 446.757812 448.902344 C 452.460938 442.898438 461.761719 442.296875 468.0625 448 C 471.363281 451.003906 473.164062 455.507812 472.867188 460.007812 C 473.164062 464.210938 471.363281 468.113281 468.664062 470.8125 C 462.664062 476.515625 453.058594 476.515625 447.058594 470.8125 C 444.058594 467.8125 442.558594 463.910156 442.855469 460.007812 C 442.558594 456.105469 444.058594 451.902344 446.757812 448.902344 Z M 465.0625 452.203125 C 460.863281 448.300781 454.261719 448.300781 450.359375 452.203125 C 448.257812 454.304688 447.359375 457.007812 447.359375 460.007812 C 447.359375 462.710938 448.257812 465.710938 450.359375 467.511719 C 454.558594 471.414062 460.863281 471.414062 465.0625 467.511719 C 467.164062 465.410156 468.0625 462.710938 468.0625 460.007812 C 468.363281 457.308594 467.164062 454.304688 465.0625 452.203125 Z M 465.0625 452.203125 "/>
</g>
<g clip-path="url(#clip6)" clip-rule="nonzero">
<path style=" stroke:none;fill-rule:nonzero;fill:rgb(100%,39.99939%,0%);fill-opacity:1;" d="M 484.570312 445.300781 L 484.867188 449.804688 C 486.667969 446.5 490.269531 444.699219 493.871094 445 C 496.273438 445 498.671875 445.601562 500.773438 447.101562 L 498.671875 451.304688 C 495.070312 448.902344 490.570312 449.203125 487.570312 452.203125 C 485.769531 454.003906 484.867188 456.105469 485.167969 458.507812 L 485.167969 474.714844 L 480.367188 474.714844 L 480.367188 445.300781 Z M 484.570312 445.300781 "/>
</g>
<g clip-path="url(#clip7)" clip-rule="nonzero">
<path style=" stroke:none;fill-rule:nonzero;fill:rgb(100%,39.99939%,0%);fill-opacity:1;" d="M 510.074219 457.605469 L 522.078125 445.300781 L 528.078125 445.300781 L 528.078125 445.601562 L 514.578125 459.109375 L 529.582031 474.117188 L 529.582031 474.417969 L 523.578125 474.417969 L 509.773438 460.609375 L 509.773438 474.417969 L 505.273438 474.417969 L 505.273438 433.292969 L 510.074219 433.292969 Z M 510.074219 457.605469 "/>
</g>
</g>
</svg>
